<?xml version="1.0" encoding="utf-8"?>
<!-- Generator: Adobe Illustrator 15.0.0, SVG Export Plug-In . SVG Version: 6.00 Build 0)  -->
<!DOCTYPE svg PUBLIC "-//W3C//DTD SVG 1.1//EN" "http://www.w3.org/Graphics/SVG/1.1/DTD/svg11.dtd">
<svg version="1.1" id="Layer_1" xmlns="http://www.w3.org/2000/svg" xmlns:xlink="http://www.w3.org/1999/xlink" x="0px" y="0px"
	 width="283.46px" height="283.46px" viewBox="0 0 283.46 283.46" enable-background="new 0 0 283.46 283.46" xml:space="preserve">
<g>
	<g>
		<g>
			<g>
				<g>
					<path fill="#030404" d="M225.565,134.688c0.365-0.821,0.818-1.641,1.185-2.552c0.365-0.912,0.546-1.824,0.729-2.736
						c0.274-1.915,0.274-3.828,0-5.743c-0.364-1.915-1.003-3.737-1.914-5.47c-0.911-1.731-2.187-3.19-3.647-4.557
						c-1.459-1.276-3.097-2.371-4.83-3.191s-3.647-1.367-5.652-1.549c-1.915-0.183-3.92-0.091-5.832,0.273
						c-1.917,0.365-3.74,0.912-5.472,1.641c-1.732,0.729-3.372,1.459-5.016,2.371c-1.64,0.819-3.189,1.731-4.832,2.643
						c-1.549,0.912-3.189,1.824-4.739,2.643c-1.55,0.821-3.189,1.642-4.83,2.28c-1.642,0.638-3.373,1.277-5.106,1.641v0.274
						c1.826-0.092,3.647-0.456,5.381-1.003c1.732-0.546,3.464-1.186,5.196-1.915c1.64-0.729,3.371-1.458,5.013-2.279
						c1.642-0.819,3.281-1.641,4.922-2.37c1.643-0.729,3.281-1.458,4.923-2.097c1.641-0.637,3.375-1.093,5.014-1.367
						c1.731-0.273,3.373-0.364,5.015-0.091c1.642,0.183,3.283,0.639,4.832,1.367c1.549,0.73,3.006,1.55,4.284,2.645
						c1.277,1.095,2.463,2.37,3.372,3.737c0.911,1.458,1.639,3.009,2.006,4.649c0.456,1.642,0.547,3.374,0.365,5.105
						c-0.091,0.912-0.183,1.732-0.458,2.553c-0.274,0.821-0.637,1.64-1.002,2.461"/>
					<path fill="#030404" d="M212.528,142.254c-1.457-0.183-2.917,0-4.282,0.456c-0.73,0.182-1.369,0.546-2.007,0.821l-0.456,0.273
						c-0.091,0.091-0.091,0.091-0.272,0.182l-0.183,0.091l-0.456,0.273l-0.454,0.365c-1.187,0.819-2.189,1.823-3.101,2.917
						s-1.641,2.187-2.371,3.372c-1.459,2.369-2.552,4.832-3.556,7.202c-1.002,2.462-1.914,4.924-3.009,7.201
						c-0.546,1.186-1.092,2.37-1.64,3.464c-0.546,1.095-1.186,2.279-1.822,3.375c-1.277,2.186-2.734,4.283-4.375,6.197
						c-1.549,2.005-3.375,3.739-5.289,5.379c-1.002,0.819-2.005,1.551-3.007,2.28c-1.095,0.635-2.098,1.367-3.282,1.913
						c-0.549,0.272-1.093,0.548-1.733,0.819c-0.545,0.274-1.185,0.458-1.73,0.729c-1.186,0.457-2.37,0.821-3.646,1.093
						c-2.462,0.55-5.015,1.005-7.566,1.096c-2.553,0.091-5.196,0.091-7.839,0.274c-2.644,0.092-5.289,0.271-7.932,0.637
						c-2.645,0.366-5.197,0.82-7.749,1.552c-2.552,0.728-5.105,1.731-7.11,3.464l0.183,0.272c1.093-0.728,2.188-1.277,3.464-1.733
						c1.185-0.455,2.461-0.819,3.737-1.092c2.553-0.548,5.106-0.911,7.749-1.094c2.553-0.184,5.197-0.274,7.839-0.274
						c2.645,0,5.197,0.091,7.841,0.091c2.644,0.092,5.378-0.182,8.021-0.637c2.646-0.549,5.29-1.369,7.752-2.463
						c2.459-1.186,4.829-2.552,6.926-4.284c2.098-1.733,4.104-3.647,5.834-5.652c1.731-2.096,3.28-4.284,4.65-6.654
						c0.728-1.185,1.367-2.369,1.913-3.555c0.64-1.185,1.187-2.462,1.643-3.647c1.002-2.552,1.913-4.923,2.827-7.382
						c0.909-2.37,1.912-4.741,3.189-6.93c1.186-2.187,2.734-4.191,4.557-5.741l0.365-0.276l0.366-0.272l0.181-0.182l0.182-0.09
						l0.365-0.275c0.546-0.274,1.004-0.547,1.551-0.82c1.093-0.456,2.278-0.639,3.462-0.548"/>
				</g>
				<path fill="#030404" d="M138.872,185.189l-2.917,0.913l-2.826,1.276l-2.643,1.549c-0.821,0.544-1.64,1.186-2.461,1.822
					c-0.82,0.639-1.549,1.369-2.279,2.005c-0.729,0.729-1.458,1.461-2.097,2.188c-1.367,1.551-2.643,3.19-3.737,4.833
					c-0.638,0.818-1.093,1.73-1.641,2.552c-0.547,0.82-1.003,1.731-1.55,2.643c-0.547,0.912-1.003,1.826-1.367,2.735
					c-0.457,0.911-0.912,1.825-1.276,2.824c-0.821,1.916-1.55,3.83-2.188,5.745c-0.639,1.914-1.186,3.92-1.642,5.926
					c-0.456,2.006-0.821,4.011-1.002,6.106c-0.273,2.006-0.456,4.012-0.729,6.016c-0.274,2.007-0.639,4.013-1.186,5.928
					c-0.548,1.913-1.185,3.829-2.279,5.378c-0.274,0.365-0.547,0.729-0.912,1.094c-0.366,0.273-0.639,0.729-1.003,0.912
					l-1.276,0.911l-1.186,0.638c-1.732,0.821-3.647,0.821-5.196,0c-1.641-0.728-2.826-2.369-3.555-4.104
					c-0.73-1.731-0.912-3.644-0.639-5.561l0.457-3.189l-2.006,2.553c-0.82,1.002-1.367,1.914-2.096,2.917
					c-0.639,0.911-1.277,1.915-2.006,2.733c-0.365,0.458-0.729,0.821-1.094,1.187c-0.364,0.366-0.82,0.729-1.185,1.003
					c-0.455,0.273-0.819,0.549-1.276,0.638c-0.182,0.091-0.455,0.091-0.638,0.091h-0.274l-0.456-0.091l-0.456-0.089
					c-0.182,0-0.182-0.092-0.273-0.092c-0.182-0.094-0.364-0.094-0.546-0.274c-0.182-0.091-0.365-0.183-0.547-0.365
					c-0.182-0.183-0.364-0.274-0.456-0.454l-0.182-0.274l-0.183-0.274c-0.091-0.183-0.184-0.457-0.274-0.637
					c-0.09-0.275-0.182-0.455-0.182-0.729c-0.091-0.274-0.091-0.456-0.091-0.731c-0.091-0.545-0.091-1.092-0.091-1.55
					c0-0.544,0.091-1.093,0.182-1.639c0.182-1.096,0.365-2.188,0.729-3.191l0.638-4.193l-2.462,3.464
					c-0.912,1.824-1.913,3.555-3.281,5.016c-0.637,0.729-1.368,1.274-2.188,1.64c-0.365,0.09-0.729,0.274-1.094,0.183
					c-0.365,0-0.638-0.093-0.911-0.273c-0.547-0.363-1.003-1.184-1.276-2.005c-0.092-0.456-0.183-0.913-0.274-1.37
					c0-0.454,0-0.91,0-1.457c0.091-1.914,0.639-3.92,1.458-5.743l1.186-3.921l-3.008,2.918c-0.821,1.003-1.458,2.006-2.279,2.917
					s-1.642,1.731-2.552,2.28c-0.457,0.271-0.913,0.457-1.369,0.637c-0.273,0.092-0.456,0.092-0.729,0.092l-0.73-0.092
					c-0.273-0.091-0.455-0.18-0.729-0.18l-0.638-0.366c-0.273-0.091-0.456-0.365-0.638-0.456l-0.273-0.273l0,0l0,0
					c-0.091-0.09,0.091,0.09,0.091,0.09l0,0l0,0l-0.091-0.09l-0.182-0.182l-0.273-0.365c-0.09-0.092-0.09-0.184-0.183-0.274
					c-0.09-0.181-0.182-0.363-0.273-0.638c-0.092-0.273-0.182-0.457-0.182-0.729c-0.091-0.273-0.091-0.55-0.091-0.821
					c-0.092-0.547,0-1.093,0.091-1.642c0.09-0.547,0.182-1.093,0.365-1.641c0.638-2.187,1.823-4.377,3.282-6.197l2.096-3.648
					l-3.737,2.188c-0.364,0.366-0.729,0.731-1.094,1.095c-0.364,0.365-0.821,0.637-1.185,1.002c-0.365,0.274-0.821,0.547-1.276,0.82
					c-0.456,0.184-0.912,0.363-1.275,0.456c-0.457,0.093-0.821,0.093-1.186,0s-0.638-0.182-0.911-0.456
					c-0.274-0.273-0.548-0.546-0.73-0.911c-0.182-0.364-0.273-0.82-0.364-1.274c-0.09-0.457-0.09-0.914-0.09-1.46
					c0-0.456,0.09-1.003,0.181-1.46c0.092-0.456,0.183-1.002,0.365-1.457c0.183-0.456,0.364-0.912,0.639-1.369
					c0.273-0.454,0.456-0.911,0.819-1.275c0.275-0.364,0.639-0.82,1.003-1.185c0.365-0.366,0.73-0.729,1.094-1.003
					c0.365-0.363,0.821-0.638,1.276-0.912l3.647-3.646l-4.924,1.823c-0.364,0.273-0.729,0.548-1.094,0.729
					c-0.364,0.272-0.729,0.457-1.185,0.639c-0.82,0.364-1.642,0.639-2.461,0.729c-1.641,0.182-3.191-0.455-3.737-1.823
					c-0.183-0.365-0.275-0.637-0.275-1.002c0-0.367,0-0.729,0.092-1.095c0.091-0.366,0.273-0.73,0.456-1.096
					c0.183-0.364,0.456-0.728,0.73-0.999c1.093-1.37,2.643-2.371,4.283-3.192l-1.093-1.733c-0.365,0.274-0.638,0.549-1.002,0.729
					c-0.365,0.185-0.729,0.367-1.094,0.549c-0.365,0.092-0.729,0.182-1.093,0.272c-0.366,0.093-0.73,0-1.095,0
					c-0.364-0.091-0.729-0.181-1.002-0.364c-0.365-0.183-0.639-0.364-0.821-0.637c-0.455-0.549-0.821-1.186-0.73-1.825
					c0-0.364,0.092-0.636,0.184-1.001c0.091-0.365,0.273-0.638,0.546-0.912c0.273-0.273,0.548-0.548,0.821-0.822
					c0.273-0.272,0.638-0.454,1.002-0.729c0.365-0.181,0.729-0.363,1.186-0.546c0.364-0.183,0.819-0.274,1.276-0.457
					c0.82-0.273,1.731-0.454,2.643-0.546l5.288-1.277l-5.378-0.729c-1.458-0.092-2.917-0.271-4.193-0.729
					c-0.638-0.184-1.276-0.549-1.732-0.913c-0.456-0.364-0.729-0.819-0.82-1.185c0-0.364,0.182-0.82,0.638-1.094
					c0.182-0.182,0.456-0.363,0.729-0.456c0.273-0.091,0.637-0.272,0.912-0.365c1.275-0.362,2.735-0.362,4.193-0.271l4.102,0.364
					l-3.556-2.097c-1.823-1.093-3.647-2.278-5.014-3.737c-0.637-0.73-1.093-1.642-1.002-2.28c0.091-0.637,0.821-1.185,1.733-1.55
					c1.823-0.729,4.01-0.82,6.199-0.82c2.096,0,4.284,0.274,6.472,0.549c2.188,0.271,4.376,0.456,6.563,0.546
					c2.188,0.091,4.467,0.183,6.655,0.183c2.188,0.092,4.466-0.183,6.654-0.183l3.282-0.367c1.093-0.089,2.188-0.179,3.282-0.453
					c2.188-0.365,4.376-0.639,6.472-1.275l3.191-0.73l3.19-1.003c1.094-0.364,2.097-0.637,3.19-1.004l3.099-1.185
					c1.003-0.454,2.097-0.728,3.1-1.274l3.008-1.46c1.003-0.455,2.005-0.911,3.008-1.459l2.826-1.641l2.826-1.64
					c0.912-0.547,1.823-1.278,2.735-1.824l2.734-1.913l1.369-0.913l1.276-1.093l5.104-4.193l-5.196,4.01l-1.276,1.005l-1.367,0.909
					l-2.734,1.824c-0.913,0.547-1.824,1.277-2.736,1.821l-2.916,1.552l-2.917,1.55c-1.003,0.456-2.006,0.911-3.009,1.367
					l-3.007,1.367c-1.003,0.455-2.006,0.73-3.1,1.187l-3.1,1.093c-1.003,0.364-2.096,0.637-3.099,0.91l-3.19,0.911l-3.19,0.642
					c-2.097,0.543-4.285,0.818-6.473,1.093c-1.094,0.183-2.188,0.272-3.282,0.363l-3.282,0.272
					c-2.188,0.093-4.376,0.185-6.564,0.093c-2.187,0-4.375-0.093-6.562-0.272c-2.188-0.184-4.376-0.364-6.563-0.639
					c-2.188-0.273-4.376-0.546-6.655-0.639c-2.279,0-4.558,0-6.837,0.913c-0.547,0.271-1.185,0.544-1.641,1.001
					c-0.547,0.457-1.002,1.095-1.095,1.914c-0.091,0.82,0.092,1.55,0.366,2.098c0.273,0.548,0.637,1.093,1.002,1.548
					c1.549,1.824,3.464,3.1,5.377,4.195l0.548-1.732c-1.551-0.182-3.282-0.182-4.924,0.271c-0.455,0.094-0.819,0.274-1.185,0.458
					c-0.364,0.184-0.819,0.364-1.186,0.728c-0.364,0.275-0.728,0.641-1.002,1.096c-0.273,0.456-0.456,1.003-0.365,1.641
					c0,0.548,0.273,1.094,0.548,1.55c0.273,0.455,0.638,0.821,1.003,1.096c0.729,0.545,1.55,0.911,2.279,1.186
					c1.55,0.543,3.19,0.728,4.74,0.82l-0.091-2.006c-1.002,0.18-1.915,0.271-2.918,0.637c-0.454,0.184-1.002,0.274-1.458,0.455
					c-0.457,0.183-0.912,0.457-1.367,0.637c-0.457,0.277-0.912,0.549-1.276,0.914c-0.456,0.363-0.82,0.728-1.187,1.184
					c-0.364,0.456-0.637,0.914-0.819,1.46c-0.183,0.546-0.366,1.186-0.274,1.731c0,1.185,0.547,2.37,1.276,3.282
					c0.365,0.455,0.911,0.821,1.367,1.093c0.547,0.273,1.094,0.457,1.641,0.548c0.548,0.092,1.094,0.092,1.732,0.092
					c0.546,0,1.094-0.183,1.641-0.366c0.547-0.18,1.003-0.365,1.459-0.637c0.456-0.274,0.911-0.549,1.276-0.913l3.282-3.281
					l-4.466,1.551c-1.824,0.909-3.647,2.005-5.015,3.736c-0.365,0.456-0.638,0.912-0.912,1.37c-0.273,0.453-0.456,0.999-0.638,1.549
					c-0.09,0.546-0.182,1.186-0.182,1.731c0,0.638,0.182,1.186,0.455,1.731c0.456,1.185,1.459,2.098,2.552,2.555
					c0.548,0.271,1.094,0.453,1.733,0.543c0.546,0.094,1.185,0.094,1.731,0c1.094-0.09,2.188-0.454,3.1-0.909
					c0.457-0.274,0.913-0.456,1.367-0.73c0.457-0.273,0.821-0.546,1.276-0.91l-1.276-1.826c-0.455,0.367-1.001,0.642-1.458,1.005
					c-0.456,0.365-0.912,0.821-1.367,1.186c-0.457,0.454-0.821,0.911-1.186,1.365c-0.364,0.457-0.638,1.005-0.911,1.551
					c-0.273,0.547-0.548,1.096-0.73,1.641c-0.182,0.548-0.364,1.185-0.455,1.732c-0.091,0.637-0.182,1.186-0.182,1.822
					c0,0.641,0,1.277,0.091,1.915c0.091,0.64,0.273,1.276,0.546,1.917c0.274,0.636,0.73,1.185,1.277,1.729
					c0.546,0.456,1.276,0.82,2.005,1.005c0.729,0.09,1.459,0.09,2.096-0.091c0.638-0.184,1.276-0.365,1.823-0.64
					c0.547-0.274,1.094-0.638,1.549-1.003c0.457-0.364,0.912-0.729,1.368-1.094c0.456-0.363,0.82-0.819,1.276-1.184l-1.64-1.46
					c-0.912,1.095-1.55,2.188-2.188,3.373c-0.273,0.549-0.546,1.185-0.821,1.823c-0.273,0.639-0.456,1.275-0.637,1.916
					c-0.183,0.637-0.366,1.274-0.366,2.003c-0.091,0.731-0.091,1.368-0.091,2.096c0,0.367,0.091,0.732,0.183,1.096
					c0.091,0.367,0.182,0.73,0.364,1.095c0.091,0.365,0.365,0.729,0.547,1.093c0.091,0.184,0.274,0.364,0.365,0.456l0.273,0.365
					l0.183,0.183l0.09,0.089l0,0l0.092,0.094l0,0l0.456,0.363c0.273,0.184,0.546,0.457,0.911,0.639
					c0.365,0.182,0.639,0.364,1.003,0.546l1.094,0.364c0.364,0,0.82,0.092,1.185,0.092c0.366-0.092,0.821-0.092,1.185-0.182
					c0.729-0.182,1.459-0.547,2.005-0.91c1.186-0.731,2.188-1.734,3.009-2.734c0.821-1.006,1.641-2.098,2.279-3.01l-1.823-1.094
					c-0.82,2.006-1.459,4.193-1.549,6.473c0,0.545,0,1.094,0,1.73c0.09,0.549,0.182,1.186,0.273,1.732
					c0.182,0.547,0.365,1.186,0.729,1.731c0.365,0.548,0.821,1.097,1.367,1.46c0.639,0.364,1.277,0.636,2.006,0.636
					c0.729,0,1.367-0.179,1.914-0.364c1.187-0.547,2.097-1.274,2.827-2.095c1.549-1.64,2.643-3.556,3.646-5.472l-1.822-0.729
					c-0.366,1.186-0.639,2.37-0.821,3.556c-0.092,0.639-0.182,1.185-0.182,1.823s0,1.278,0.09,1.823
					c0,0.272,0.092,0.639,0.183,0.913c0.092,0.272,0.092,0.637,0.273,0.911c0.092,0.274,0.183,0.638,0.366,0.911l0.273,0.457
					l0.273,0.455c0.182,0.272,0.455,0.546,0.73,0.821c0.273,0.272,0.547,0.455,0.911,0.636c0.274,0.186,0.639,0.274,1.003,0.457
					c0.364,0.183,0.638,0.183,0.912,0.183l0.456,0.089c0.273,0,0.364,0,0.638,0c0.364,0,0.729-0.089,1.094-0.18
					c0.729-0.184,1.276-0.549,1.823-0.912c0.546-0.365,1.003-0.821,1.458-1.277c0.456-0.455,0.822-0.911,1.186-1.365
					c0.729-0.913,1.458-1.915,2.096-2.918c0.639-1.004,1.276-1.915,1.915-2.734l-1.55-0.729c-0.273,2.185,0,4.375,0.912,6.472
					c0.821,2.004,2.279,3.918,4.375,4.921c2.097,1.003,4.649,0.914,6.564-0.092l1.458-0.819l1.186-0.909
					c0.456-0.366,0.82-0.731,1.185-1.186c0.366-0.457,0.639-0.912,1.002-1.277c1.186-1.823,1.915-3.829,2.371-5.835
					c0.547-2.003,0.82-4.009,1.094-6.106c0.275-2.007,0.457-4.104,0.73-6.108c0.182-2.006,0.455-4.012,0.912-6.018
					c0.455-2.005,0.91-3.918,1.549-5.835c0.547-1.912,1.276-3.826,2.006-5.74c0.364-0.913,0.729-1.915,1.185-2.826
					c0.365-0.914,0.821-1.823,1.277-2.734c0.455-0.914,0.912-1.826,1.458-2.645c0.547-0.821,1.003-1.732,1.551-2.553
					c1.094-1.732,2.37-3.283,3.646-4.925c0.73-0.728,1.367-1.548,2.097-2.276c0.729-0.729,1.458-1.369,2.279-2.098
					c0.821-0.637,1.55-1.276,2.371-1.822l2.552-1.643l2.735-1.276L138.872,185.189z"/>
			</g>
		</g>
	</g>
	<g>
		<g>
			<path fill="#030404" d="M123.284,219.921l12.945-5.561l12.945-5.469l12.943-5.378c2.19-0.914,4.375-1.643,6.565-2.463l6.562-2.46
				l52.602-19.599l1.729-0.64l0.642,1.732l22.149,59.435l0.637,1.733l-1.73,0.637l-105.198,39.201l-1.732,0.638l-0.638-1.732
				l-2.461-6.654l-1.275-3.283c-0.457-1.094-0.82-2.186-1.187-3.371l-4.375-13.492l-4.376-13.49
				c-1.459-4.469-2.917-9.027-4.285-13.493c1.824,4.376,3.738,8.661,5.562,13.036l5.47,13.035l5.47,13.034
				c0.456,1.096,0.911,2.19,1.275,3.284l1.186,3.283l2.462,6.653l-2.371-1.093l105.199-39.201l-1.096,2.371l-22.151-59.254
				l2.371,1.094l-52.6,19.602l-6.563,2.459c-2.188,0.821-4.377,1.732-6.563,2.46l-13.308,4.376l-13.402,4.376L123.284,219.921z"/>
		</g>
		<g>
			<path fill="#030404" d="M124.47,222.566c0,0,8.022,1.457,19.965,3.737c6.017,1.094,13.034,2.369,20.51,3.735
				c3.738,0.639,7.657,1.369,11.577,2.1c2.005,0.362,3.919,0.637,5.925,0.999c1.003,0.185,2.007,0.274,3.009,0.458l0.73,0.092
				c0.181,0,0.544,0.092,0.637,0.092c0,0,0,0-0.093,0c0.093-0.184-0.819,0.271-0.728,0.911c0,0,0-0.093,0-0.274
				c0.091-0.183,0.091-0.183,0.091-0.273c0.093-0.092,0.093-0.184,0.093-0.272l0.181-0.365l0.456-0.639
				c2.37-3.373,4.832-6.562,7.295-9.754c2.459-3.191,4.829-6.289,7.109-9.39c4.648-6.017,8.931-11.666,12.672-16.592
				c7.474-9.661,12.396-16.133,12.396-16.133l2.827,2.277c0,0-5.106,6.289-12.854,15.77c-3.829,4.74-8.295,10.301-13.127,16.227
				c-2.369,3.01-4.832,6.018-7.385,9.117c-2.46,3.099-5.014,6.289-7.477,9.481l-0.454,0.638l-0.183,0.271l-0.093,0.094
				c0,0,0,0,0.093-0.183c0-0.183,0-0.274,0-0.183c0,0.637-0.913,1.186-0.82,1.001h-0.181c-0.456,0-0.64-0.09-0.911-0.09
				l-0.729-0.091c-1.006-0.184-2.005-0.364-3.011-0.549c-2.006-0.363-4.012-0.82-5.925-1.184c-3.919-0.82-7.748-1.643-11.485-2.371
				c-7.475-1.549-14.403-3.098-20.42-4.283C132.492,224.298,124.47,222.566,124.47,222.566z"/>
		</g>
		<g>
			<polygon fill="#030404" points="166.039,233.412 147.896,277.809 144.615,276.26 			"/>
		</g>
		<g>
			<path fill="#030404" d="M205.783,215.728c0,0,0.183,0.093,0.456,0.273c0.275,0.183,0.821,0.456,1.37,0.822
				c1.184,0.638,3.006,1.548,5.104,2.644c4.191,2.185,9.844,5.012,15.498,7.931c11.301,5.65,22.606,11.394,22.606,11.394
				l-1.733,3.191c0,0-10.848-6.474-21.788-12.943c-5.378-3.283-10.846-6.566-14.857-9.026c-2.007-1.276-3.737-2.278-4.923-3.009
				c-0.548-0.363-1.001-0.638-1.367-0.912C205.966,215.82,205.783,215.728,205.783,215.728z"/>
		</g>
	</g>
	<path fill="#030404" d="M211.783,123.9c1.071-0.916,2.71-0.758,3.654,0.351c0.951,1.111,0.852,2.752-0.221,3.668
		c-1.071,0.917-2.71,0.758-3.66-0.352C210.611,126.458,210.711,124.816,211.783,123.9z"/>
	<g>
		<path fill="#030404" d="M225.02,133.776c0.82,0.091,0.729,0.364,0.82,0.638l0.182,0.82l0.455,1.551
			c0.273,1.094,0.548,2.096,0.819,3.19c0.55,2.097,1.004,4.193,1.278,6.381l0.091,0.638l-0.546-0.089l-16.319-2.736l0.364-1.823
			l16.047,3.829l-0.457,0.454c-0.729-2.096-1.277-4.1-1.823-6.197c-0.274-1.004-0.546-2.098-0.82-3.191l-0.365-1.55l-0.183-0.821
			C224.562,134.414,224.289,134.231,225.02,133.776z"/>
	</g>
	<g>
		<g>
			<g>
				<g>
					<path fill="#030404" d="M163.85,130.858v-0.819c0-0.275,0-0.548-0.092-0.912c-0.089-0.548-0.18-1.185-0.363-1.732l-0.272-0.819
						c-0.092-0.275-0.185-0.548-0.364-0.821c-0.093-0.273-0.185-0.547-0.366-0.821l-0.454-0.821
						c-1.186-2.096-2.734-3.828-4.469-5.377c-1.731-1.55-3.647-3.009-5.561-4.285c-1.914-1.275-3.919-2.461-6.017-3.554
						c-4.102-2.189-8.295-4.103-12.58-5.927c-4.285-1.731-8.569-3.373-12.854-5.104c-1.003-0.456-2.097-0.912-3.1-1.367
						c-1.002-0.456-2.096-1.002-3.099-1.459c-1.002-0.547-2.005-1.003-3.008-1.55l-3.009-1.64c-3.92-2.28-7.656-4.832-11.304-7.475
						c-3.646-2.735-7.11-5.652-10.301-8.843c-3.282-3.19-6.381-6.472-9.207-9.937c-1.458-1.731-2.826-3.555-4.102-5.378
						l-1.003-1.367l-0.456-0.729l-0.455-0.729c-0.639-0.912-1.276-1.824-1.824-2.826c-2.37-3.829-4.467-7.84-6.381-12.033
						l-0.729-1.55l-0.639-1.549l-0.637-1.55c-0.184-0.547-0.457-1.093-0.547-1.641c-0.183-0.547-0.365-1.003-0.456-1.549
						c-0.183-0.548-0.274-1.095-0.456-1.642c-0.274-1.093-0.547-2.188-0.82-3.282c-1.002-4.466-1.732-9.025-3.191-13.583
						c-0.365-1.094-0.82-2.187-1.367-3.281l-0.365-0.82v-0.092L53.912,13.9L53.82,13.81l-0.182-0.365
						c-0.364-0.546-0.638-1.094-1.094-1.549c-0.273-0.274-0.456-0.457-0.729-0.729c-0.274-0.183-0.638-0.456-1.094-0.547
						c-0.456-0.091-0.912-0.091-1.276,0c-0.456,0.092-0.73,0.365-1.003,0.639c-0.546,0.457-0.912,1.003-1.185,1.549
						c-0.273,0.548-0.546,1.094-0.821,1.642c-0.911,2.188-1.367,4.467-1.823,6.836c-0.456,2.28-0.729,4.559-0.912,6.929
						c0,0.273,0,0.639,0,0.912c0,0.182,0,0.273,0,0.456v0.456l0.092,1.731c0,1.185,0.182,2.279,0.273,3.464
						c0,0.274,0,0.547,0.091,0.912l0.092,0.912l0.182,1.733c0.182,1.185,0.456,2.279,0.638,3.464
						c0.092,0.273,0.182,0.546,0.182,0.819c0.091,0.274,0.183,0.548,0.274,0.821c0.183,0.547,0.365,1.093,0.547,1.641
						c0.364,1.094,0.82,2.187,1.185,3.281c0.365,1.094,0.639,2.188,0.821,3.282c0.091,0.548,0.182,1.094,0.091,1.55v0.365
						l0.273-0.092c0,0.092,0.182,0.547,0.182,0.821c0.183,0.456,0,0.456,0.091,0.546c0.092,0.091,1.186,2.461,1.095,2.37
						l-0.274-4.101c-0.364-1.094-0.364-0.821-1.003-1.732c-0.546-0.912-1.276-1.823-2.097-2.644
						c-0.819-0.821-1.731-1.551-2.917-2.005c-0.548-0.273-1.185-0.364-1.823-0.364h-0.912c-0.092,0-0.274,0-0.456,0.091
						l-0.365-0.091c-1.275,0.273-2.37,1.093-3.1,2.004c-0.729,1.003-1.276,2.097-1.641,3.19c-0.365,1.094-0.638,2.188-0.729,3.282
						c-0.091,0.547-0.182,1.094-0.182,1.642v0.273v0.183v0.364l-0.092,0.82v0.365v0.457v0.82c0,0.547,0.092,1.094,0.092,1.731
						c0,0.547,0.091,1.095,0.182,1.642c0.091,0.547,0.182,1.094,0.364,1.64c0.091,0.274,0.091,0.547,0.183,0.821l0.274,0.82v0.911
						l0.273,0.821l0.273,0.821l0.365,0.729c0.183,0.547,0.457,1.003,0.729,1.55c0.273,0.456,0.456,1.003,0.73,1.458
						c0.273,0.456,0.546,1.002,0.82,1.458c0.547,0.912,1.185,1.914,1.732,2.827c1.186,1.822,2.553,3.555,3.829,5.287l1.731-2.369
						c-0.911-0.366-1.823-0.913-2.826-1.46c-1.002-0.546-2.096-1.093-3.554-1.367c-0.365,0-0.729-0.09-1.095-0.09
						c-0.182,0-0.364,0-0.546,0l-0.638,0.09c-0.364,0.092-0.729,0.274-1.094,0.456c-0.364,0.183-0.729,0.366-1.002,0.639
						c-0.273,0.273-0.547,0.456-0.82,0.73l-0.365,0.364L33.674,79.9l-0.091,0.091l-0.091,0.183l-0.455,0.729
						c-0.183,0.364-0.365,0.73-0.547,1.095c-0.546,1.367-0.639,2.825-0.455,4.102c0.182,1.367,0.545,2.553,1.002,3.647
						c0.455,1.094,1.002,2.188,1.64,3.19c0.273,0.546,0.639,1.003,0.912,1.458l0.273,0.364l0.274,0.365l0.456,0.638l0.912,1.367
						c0.273,0.456,0.729,0.912,1.092,1.368c0.73,0.911,1.46,1.823,2.28,2.643c0.82,0.821,1.55,1.732,2.371,2.461l1.185,1.185
						c0.364,0.366,0.82,0.821,1.276,1.186c0.821,0.73,1.732,1.55,2.552,2.279c0.912,0.73,1.733,1.459,2.643,2.097l2.827,2.006
						l2.917,1.822l1.093-3.828c-0.912,0-1.824-0.091-2.826-0.182c-1.003,0-2.097-0.092-3.464,0.182
						c-0.364,0.091-0.729,0.182-1.003,0.273c-0.364,0.183-0.729,0.366-1.002,0.548c-0.273,0.273-0.638,0.455-0.912,0.729
						l-0.364,0.456c-0.091,0.182-0.182,0.273-0.273,0.455l-0.273,0.457c-0.092,0.182-0.183,0.273-0.183,0.456
						c-0.183,0.273-0.274,0.547-0.365,0.82c-0.091,0.273-0.183,0.547-0.273,0.821l-0.182,0.82l-0.091,0.182v0.092l0,0v0.091v0.092
						l-0.092,0.364c0,0.09,0,0.182-0.091,0.364l-0.092,0.457v0.456v0.456c0,0.273,0,0.638,0,0.911
						c0.092,1.185,0.366,2.278,0.73,3.373c0.729,2.096,1.915,4.011,3.099,5.652l0.273,0.274l0.091,0.182l0.091,0.091l0.091,0.182
						l0.457,0.547l0.911,1.093c0.184,0.184,0.275,0.365,0.457,0.547L53,132.136l1.094,1.092c0.365,0.366,0.729,0.73,1.094,1.003
						l1.185,1.002c0.729,0.639,1.551,1.276,2.371,1.915c0.82,0.638,1.642,1.185,2.462,1.733c0.82,0.546,1.64,1.093,2.461,1.64
						l2.552,1.55l2.552,1.459l1.368-4.194l-1.094-0.091c-0.365,0-0.729,0-1.094,0.091c-0.365,0-0.73,0.091-1.094,0.183
						c-0.366,0.091-0.73,0.182-1.094,0.364c-0.365,0.183-0.729,0.274-1.003,0.457c-0.365,0.182-0.639,0.364-0.912,0.638
						c-0.273,0.274-0.639,0.548-0.821,0.82c-0.091,0.182-0.273,0.274-0.364,0.457l-0.364,0.456c-0.457,0.638-0.73,1.458-0.913,2.188
						c-0.09,0.364-0.09,0.82-0.09,1.187c0,0.363,0,0.82,0.09,1.185c0.091,0.363,0.091,0.729,0.183,1.093
						c0.091,0.364,0.183,0.728,0.364,1.003l0.183,0.454l0.09,0.274l0.093,0.093v0.09l0,0l0.09,0.184l0,0
						c0.183,0.272,0.274,0.454,0.456,0.729c0.274,0.363,0.547,0.635,0.821,0.909c0.273,0.275,0.546,0.458,0.82,0.731l0.82,0.544
						l0.82,0.457c0.547,0.274,1.186,0.549,1.733,0.728c0.273,0.094,0.546,0.186,0.82,0.276c0.273,0.091,0.547,0.182,0.82,0.273
						c0.546,0.183,1.185,0.272,1.733,0.363c0.546,0.093,1.185,0.184,1.731,0.274c1.185,0.183,2.279,0.183,3.463,0.183l-0.637-4.193
						c-0.639,0.183-1.185,0.363-1.824,0.639c-0.638,0.272-1.276,0.547-1.915,1.093c-0.364,0.274-0.638,0.549-1.002,0.913
						s-0.638,0.911-0.82,1.642c-0.183,0.636-0.091,1.365,0.092,2.004c0.181,0.546,0.455,1.002,0.729,1.366
						c0.547,0.729,1.093,1.185,1.641,1.642c0.547,0.456,1.094,0.729,1.641,1.093c1.094,0.641,2.187,1.096,3.373,1.552
						c2.188,0.911,4.466,1.64,6.745,2.277c1.186,0.274,2.28,0.639,3.464,0.821c0.547,0.089,1.185,0.274,1.823,0.366
						c0.639,0.09,1.186,0.181,2.006,0.181l-0.091-3.738c-0.638,0.093-1.276,0.093-2.005,0.274c-0.729,0.183-1.458,0.364-2.188,0.91
						c-0.182,0.094-0.364,0.274-0.548,0.458c-0.181,0.181-0.364,0.364-0.546,0.638c-0.364,0.456-0.547,1.093-0.547,1.732
						c0,0.638,0.092,1.185,0.274,1.638c0.183,0.458,0.456,0.822,0.729,1.188c0.547,0.639,1.094,1.093,1.642,1.548
						c0.637,0.365,1.185,0.729,1.823,1.004c0.639,0.271,1.277,0.457,2.006,0.546c0.181,0,0.365,0.091,0.547,0.091h0.091h0.09h0.091
						h0.183l0.82,0.092c0.273,0,0.547,0.092,0.912,0.092h0.911h0.912l0.912-0.092c0.639,0,1.186-0.092,1.824-0.183
						c0.546-0.089,1.185-0.089,1.732-0.182c0.547-0.093,1.185-0.182,1.732-0.272l1.731-0.366l1.733-0.454l1.731-0.456l-1.186-2.734
						c-0.546,0.271-1.002,0.637-1.549,1.093c-0.273,0.274-0.547,0.549-0.821,1.002c-0.273,0.365-0.455,1.096-0.273,1.731
						c0.183,0.639,0.548,1.096,0.912,1.46c0.364,0.274,0.638,0.454,1.003,0.639c0.637,0.272,1.185,0.456,1.822,0.636
						c1.185,0.274,2.279,0.457,3.373,0.457c0.547,0,1.185,0,1.732,0h0.091h0.091h0.091h0.182l0.366-0.092
						c0.273,0,0.546-0.091,0.82-0.091c0.547-0.09,1.185-0.182,1.642-0.363c0.546-0.183,1.093-0.274,1.64-0.455
						c1.094-0.276,2.097-0.641,3.099-1.095c1.003-0.366,2.006-0.82,3.009-1.277c0.456-0.182,1.003-0.454,1.458-0.639
						c0.456-0.18,1.003-0.454,1.459-0.729c1.003-0.456,1.915-1.002,2.826-1.549c0.912-0.55,1.914-1.094,2.826-1.642
						c0.912-0.546,1.823-1.186,2.735-1.731c0.912-0.639,1.732-1.185,2.644-1.916c0.454-0.272,0.82-0.637,1.276-1.001
						c0.457-0.364,0.821-0.638,1.276-1.004c0.82-0.729,1.641-1.458,2.37-2.187l1.094-1.185l1.094-1.278l1.002-1.276
						c0.274-0.454,0.55-0.91,0.822-1.365l-0.364-0.184c-0.274,0.455-0.64,0.912-0.913,1.276l-1.003,1.186l-1.093,1.093l-1.186,1.094
						c-0.82,0.731-1.641,1.368-2.46,2.007c-0.457,0.363-0.822,0.639-1.277,0.911c-0.456,0.274-0.819,0.639-1.276,0.912
						c-0.911,0.547-1.732,1.186-2.644,1.732c-0.912,0.546-1.822,1.094-2.734,1.549c-0.912,0.547-1.824,1.002-2.827,1.459
						c-0.912,0.456-1.915,0.911-2.826,1.367c-0.456,0.183-0.912,0.455-1.459,0.639c-0.456,0.183-1.003,0.457-1.458,0.637
						c-1.002,0.364-2.005,0.73-2.917,1.094c-1.002,0.365-2.004,0.639-3.007,0.911c-0.456,0.185-1.003,0.185-1.55,0.364
						c-0.456,0.093-1.001,0.186-1.458,0.274c-0.273,0-0.546,0.091-0.82,0.091h-0.364h-0.183h-0.091l0,0l0,0l0,0h-0.091
						c-0.457,0-0.912,0-1.459-0.091c-1.002-0.089-2.005-0.274-2.917-0.546c-0.457-0.093-0.912-0.274-1.185-0.456
						c-0.183-0.092-0.274-0.183-0.366-0.272c-0.091-0.092,0-0.092,0,0.09c0,0.183,0,0.273,0,0.273s0.092-0.183,0.275-0.273
						c0.273-0.274,0.637-0.454,1.093-0.729l9.208-5.653l-10.301,3.009l-1.642,0.364l-1.64,0.365l-1.642,0.273
						c-0.546,0.091-1.094,0.091-1.64,0.183c-0.548,0.092-1.094,0.092-1.641,0.183c-0.547,0.092-1.095,0.092-1.641,0.092h-0.821
						h-0.819h-0.821c-0.273,0-0.547-0.092-0.821-0.092l-0.82-0.091h-0.183l0,0l0,0l0,0h0.091l0,0h-0.091
						c-0.09,0-0.182,0-0.364-0.092c-0.456-0.092-0.912-0.183-1.276-0.364c-0.457-0.183-0.82-0.364-1.185-0.639
						c-0.365-0.274-0.639-0.547-0.821-0.818c-0.182-0.277-0.182-0.457-0.182-0.366c0,0,0,0.089,0,0.182l0,0c0,0,0,0,0.091-0.093
						c0.182-0.089,0.546-0.272,1.002-0.363c0.456-0.09,0.913-0.09,1.368-0.181l7.476-2.826l-7.566-0.913
						c-0.364,0-0.912-0.09-1.458-0.183c-0.548-0.09-1.094-0.182-1.55-0.363c-1.094-0.275-2.188-0.548-3.191-0.821
						c-2.096-0.639-4.284-1.367-6.199-2.279c-1.002-0.456-2.005-0.911-2.826-1.458c-0.456-0.271-0.819-0.546-1.185-0.821
						c-0.364-0.271-0.638-0.546-0.82-0.728c-0.091-0.093-0.091-0.184-0.091-0.093c0,0,0,0.185,0,0.274c0,0.091-0.092,0.183,0,0.091
						c0.091,0,0.091-0.091,0.273-0.181c0.273-0.185,0.638-0.366,1.094-0.549c0.455-0.182,0.912-0.364,1.368-0.456l12.671-4.012
						l-13.31-0.18c-0.456,0-1.002,0-1.458-0.092c-0.456,0-1.003-0.094-1.458-0.183c-0.456-0.09-1.003-0.183-1.459-0.274
						c-0.456-0.09-0.911-0.183-1.367-0.364c-0.273-0.092-0.456-0.092-0.637-0.183c-0.183-0.09-0.457-0.182-0.639-0.274
						c-0.456-0.18-0.821-0.363-1.186-0.546l-0.546-0.365l-0.457-0.363L67.039,149c-0.09-0.092-0.182-0.183-0.273-0.274
						c-0.091-0.183-0.274-0.457-0.457-0.637l0,0l0,0c0.182,0.272,0,0.091,0.092,0.091l0,0l0,0v-0.091l-0.092-0.092l-0.091-0.274
						c-0.092-0.182-0.092-0.364-0.182-0.454c-0.091-0.185-0.091-0.275-0.091-0.456c0-0.185,0-0.274,0-0.457l0.091-0.456
						c0.09-0.272,0.182-0.546,0.273-0.729c0-0.091,0.092-0.091,0.092-0.182l0.181-0.182c0.092-0.092,0.184-0.183,0.275-0.274
						s0.273-0.183,0.364-0.272c0.092-0.092,0.273-0.092,0.456-0.184l0.457-0.182l0.547-0.091h0.547c0.182,0,0.364,0,0.546,0
						l9.298,0.364l-7.838-4.558l-2.462-1.459l-2.37-1.458c-0.82-0.547-1.55-1.002-2.371-1.55c-0.729-0.546-1.549-1.094-2.278-1.64
						c-0.73-0.548-1.459-1.094-2.188-1.733l-1.003-0.912c-0.364-0.273-0.729-0.637-1.003-0.911l-0.91-0.912l-0.458-0.456
						c-0.181-0.183-0.364-0.364-0.455-0.546l-0.912-1.094l-0.456-0.547l-0.365-0.456c-1.095-1.367-2.006-2.917-2.553-4.375
						c-0.273-0.73-0.455-1.55-0.547-2.279c0-0.183,0-0.364,0-0.546v-0.275v-0.273v-0.273c0-0.091,0-0.273,0.092-0.366l0.091-0.364
						v-0.092l0,0c0,0,0,0.183,0,0.092l0,0l0,0v-0.182c0.182-0.821,0.455-1.55,0.729-2.006c0.273-0.456,0.456-0.547,1.002-0.729
						c0.548-0.092,1.367-0.183,2.28-0.092c0.912,0,1.914,0.092,2.917,0.092l7.566,0.091l-6.473-3.92l-2.735-1.64l-2.643-1.823
						l-2.553-2.006c-0.821-0.637-1.642-1.367-2.461-2.097c-0.456-0.365-0.82-0.729-1.186-1.093l-1.185-1.095
						c-0.82-0.729-1.458-1.549-2.279-2.278c-0.729-0.729-1.368-1.55-2.096-2.371l-0.547-0.637c-0.183-0.183-0.365-0.365-0.456-0.639
						l-1.003-1.367l-0.456-0.639l-0.182-0.273l-0.183-0.365c-0.273-0.454-0.546-0.912-0.821-1.367
						c-0.546-0.912-1.002-1.823-1.458-2.735c-0.364-0.912-0.639-1.823-0.821-2.735c-0.091-0.912-0.091-1.733,0.182-2.461
						c0.093-0.183,0.093-0.274,0.183-0.456l0.456-0.729l0.364-0.366c0.092-0.182,0.275-0.273,0.457-0.364
						c0.546-0.455,1.094-0.547,1.823-0.547c0.729,0.092,1.732,0.456,2.644,0.911c1.003,0.458,2.005,1.003,3.099,1.459l5.47,2.096
						l-3.737-4.467c-1.367-1.641-2.734-3.282-3.92-5.014c-0.638-0.82-1.187-1.731-1.823-2.552c-0.273-0.457-0.548-0.912-0.821-1.367
						c-0.273-0.457-0.546-0.912-0.729-1.368c-0.274-0.456-0.457-0.912-0.729-1.367l-0.365-0.73l-0.274-0.728L38.05,66.5l-0.274-0.73
						l-0.273-0.729c-0.092-0.274-0.092-0.456-0.183-0.73c-0.182-0.456-0.273-1.002-0.365-1.458
						c-0.091-0.457-0.181-1.003-0.273-1.549c-0.091-0.547-0.182-1.003-0.182-1.55v-0.73V58.66c0-0.092,0-0.273,0-0.365v-0.82v-0.364
						v-0.183v-0.182c0-0.548,0.091-1.003,0.182-1.55c0.092-1.003,0.273-2.006,0.638-3.009c0.274-0.911,0.639-1.823,1.185-2.552
						c0.547-0.73,1.277-1.276,2.097-1.458l0.274-0.091c0.092,0,0.183-0.091,0.365-0.091l0.73-0.092c0.455,0,0.91,0.092,1.276,0.274
						c0.911,0.273,1.731,0.82,2.37,1.549c0.729,0.73,1.367,1.459,1.914,2.37c0.547,0.821,1.002,1.642,1.459,2.645l0.729-0.639
						c-0.182-0.364,0.092-0.364,0-0.364l-0.091-0.091l0,0l0,0l0,0v0.091l0.091-0.639c0-0.637-0.182-1.003-0.364-1.64
						c-0.273-1.186-0.456-2.554-0.821-3.646c-0.364-1.094-0.82-2.188-1.185-3.282c-0.183-0.548-0.364-1.094-0.546-1.642
						c-0.09-0.273-0.182-0.546-0.273-0.821c-0.091-0.273-0.183-0.546-0.183-0.82c-0.183-1.093-0.456-2.188-0.638-3.373l-0.366-1.185
						c-0.091-0.548-0.181-1.095-0.181-1.733c-0.092-1.093-0.183-2.279-0.183-3.463l-0.091-1.731v-0.457v-0.365
						c0-0.273,0-0.547,0-0.82c0.182-2.279,0.455-4.468,0.911-6.747c0.456-2.188,1.003-4.466,1.915-6.472
						c0.456-1.003,1.002-2.005,1.641-2.553c0.182-0.09,0.364-0.182,0.456-0.273c0.091,0,0.273,0,0.364,0
						c0.273,0.091,0.638,0.364,0.912,0.729c0.274,0.366,0.638,0.821,0.82,1.277l0.183,0.364l0.092,0.091l0,0v0.091l0.091,0.182
						l0.364,0.73c0.455,1.002,0.82,2.096,1.094,3.1c1.275,4.284,1.823,8.841,2.643,13.401c0.365,2.278,0.821,4.557,1.551,6.927
						c0.182,0.547,0.364,1.094,0.546,1.641l0.639,1.642l0.638,1.641l0.639,1.64c1.821,4.285,3.828,8.569,6.197,12.581
						c0.548,1.003,1.186,2.005,1.824,3.007l0.456,0.729l0.457,0.73l1.003,1.458c1.367,2.006,2.734,3.828,4.283,5.652
						c2.917,3.646,6.108,7.11,9.572,10.301c3.373,3.191,7.019,6.2,10.757,9.025c3.737,2.826,7.749,5.288,11.759,7.567l3.1,1.64
						c1.003,0.547,2.098,1.002,3.191,1.55c1.094,0.546,2.096,0.912,3.19,1.458c1.094,0.456,2.188,0.912,3.282,1.368
						c4.376,1.641,8.661,3.1,12.945,4.74c4.285,1.641,8.568,3.281,12.671,5.287s8.114,4.193,11.67,7.02
						c1.73,1.459,3.371,3.009,4.646,4.832l0.458,0.729c0.181,0.274,0.271,0.456,0.364,0.729c0.091,0.273,0.273,0.456,0.363,0.729
						l0.274,0.819c0.274,0.548,0.274,1.094,0.454,1.642c0.093,0.273,0.093,0.546,0.093,0.82l0.091,0.82L163.85,130.858z"/>
				</g>
				<path fill="#030404" d="M159.018,132.043c0.186,0-0.092-0.546-0.728-1.367c-0.639-0.821-1.734-2.005-3.282-3.282
					c-3.007-2.644-7.566-6.017-13.4-9.48c-5.834-3.464-12.945-7.019-20.784-10.3c-2.006-0.821-3.921-1.642-6.018-2.371
					c-1.003-0.365-2.097-0.73-3.099-1.186c-1.002-0.456-2.005-0.819-3.008-1.276c-4.012-1.823-8.022-3.737-11.942-6.016
					c-7.749-4.375-15.041-9.572-21.058-15.407c-3.008-2.917-5.652-5.925-7.931-9.025c-2.28-3.099-4.284-6.107-5.926-9.024
					c-3.282-5.834-5.378-11.122-6.837-14.768c-1.458-3.647-2.461-5.652-2.461-5.652s0.183,0.548,0.546,1.551
					c0.365,1.001,0.821,2.461,1.459,4.375c0.638,1.823,1.459,4.103,2.371,6.746c1.003,2.553,2.188,5.469,3.737,8.478
					c1.548,3.009,3.373,6.291,5.651,9.48c2.279,3.19,4.922,6.381,7.931,9.481c3.009,3.007,6.381,5.925,9.937,8.661
					c3.646,2.643,7.475,5.104,11.395,7.383c3.92,2.279,8.113,4.194,12.124,6.016c1.003,0.456,2.097,0.912,3.1,1.368
					c1.001,0.365,2.096,0.729,3.099,1.094c2.006,0.729,4.012,1.458,6.017,2.279c7.84,3.099,14.951,6.381,20.876,9.48
					c5.924,3.191,10.664,6.2,13.766,8.569c1.55,1.185,2.734,2.188,3.465,3.007C158.837,131.497,159.11,132.043,159.018,132.043z"/>
			</g>
		</g>
	</g>
	<path fill="#030404" d="M172.51,123.657c0.092-0.183,0.185-0.364,0.274-0.547s0.183-0.456,0.183-0.638
		c0.092-0.456,0.092-0.912,0.182-1.276c0-0.912-0.09-1.732-0.274-2.553c-0.272-1.731-0.82-3.372-1.364-5.013
		c-1.096-3.282-2.556-6.382-4.012-9.39c-0.731-1.55-1.55-3.009-2.28-4.558c-0.364-0.73-0.731-1.55-1.096-2.28l-1.092-2.279
		c-1.457-3.009-2.827-6.108-4.013-9.208c-1.092-3.099-2.096-6.29-2.734-9.571l-0.272-1.186c-0.091-0.364-0.091-0.82-0.183-1.185
		c-0.091-0.82-0.272-1.642-0.365-2.461l-0.271-2.461c-0.093-0.82-0.093-1.64-0.184-2.462c-0.091-0.82-0.091-1.64-0.182-2.46
		c0-0.821-0.092-1.641-0.092-2.553v-2.553v-2.552c0-0.821,0.092-1.641,0.092-2.553c0-0.82,0.091-1.641,0.182-2.552l0.184-2.553
		l0.271-2.461c0.457-3.373,1.004-6.654,1.733-9.937c0.729-3.28,1.729-6.472,2.916-9.662c0.64-1.55,1.275-3.1,1.914-4.648
		c0.365-0.73,0.639-1.551,1.096-2.279c0.363-0.73,0.821-1.46,1.274-2.188c0.821-1.459,1.732-2.917,2.46-4.466
		c0.731-1.55,1.461-3.1,1.826-4.924c0.091-0.91,0.091-1.822-0.093-2.734c-0.091-0.456-0.363-1.003-0.728-1.367
		c-0.457-0.456-1.006-0.639-1.55-0.639c-1.095,0-1.916,0.364-2.734,0.73c-0.82,0.455-1.552,0.912-2.279,1.367
		c-0.731,0.547-1.368,1.093-2.007,1.64c-0.182,0.183-0.274,0.274-0.546,0.456l-0.456,0.456c-0.272,0.274-0.639,0.548-0.912,0.912
		l-0.911,1.003l-0.822,1.003c-0.273,0.364-0.546,0.637-0.818,1.003c-0.273,0.364-0.548,0.729-0.729,1.094
		c-1.003,1.458-1.823,2.916-2.646,4.558c-0.728,1.549-1.364,3.19-1.912,4.921c-0.458,1.733-0.913,3.464-1.095,5.197
		c-0.184,1.731-0.184,3.555,0.091,5.378l1.642,4.467l1.002-4.832c-0.091-0.638-0.091-1.55-0.091-2.279
		c0-0.82-0.092-1.641-0.092-2.461c-0.091-1.641-0.272-3.374-0.638-5.014c-0.182-0.821-0.455-1.733-0.819-2.645
		c-0.093-0.182-0.184-0.456-0.365-0.637l-0.182-0.366l-0.275-0.364c-0.182-0.182-0.363-0.455-0.546-0.639
		c-0.182-0.182-0.456-0.364-0.729-0.546c-0.545-0.364-1.186-0.547-1.822-0.547c-0.274,0-0.639,0-0.912,0.092
		c-0.272,0.091-0.547,0.091-0.821,0.182c-0.273,0.092-0.546,0.183-0.729,0.273l-0.365,0.182l-0.182,0.091h-0.09l0,0l-0.091,0.092
		l0,0l-0.275,0.182c-0.091,0.091-0.182,0.091-0.272,0.184c-0.183,0.182-0.456,0.364-0.638,0.546
		c-0.729,0.729-1.367,1.549-1.732,2.461c-0.456,0.911-0.73,1.732-0.912,2.644c-0.364,1.731-0.456,3.556-0.456,5.196
		c0.092,1.732,0.182,3.373,0.456,5.015c0.273,1.64,0.639,3.282,1.004,4.922l3.007-1.094c-0.548-1.094-1.002-2.188-1.641-3.282
		c-0.273-0.546-0.637-1.093-1.001-1.64c-0.365-0.547-0.82-1.094-1.369-1.642c-0.546-0.547-1.276-1.003-2.188-1.276
		c-0.91-0.273-2.004-0.183-2.826,0.182c-0.82,0.365-1.367,0.821-1.915,1.367c-0.273,0.275-0.455,0.548-0.729,0.821l-0.183,0.182
		l-0.091,0.093v0.091l0,0l0,0l-0.091,0.091l-0.273,0.365l-0.273,0.364c-0.091,0.183-0.183,0.366-0.274,0.548l-0.273,0.546
		c-0.091,0.182-0.091,0.366-0.183,0.547l-0.182,0.547c-0.091,0.182-0.091,0.365-0.091,0.547l-0.091,0.546
		c0,0.183,0,0.366-0.09,0.548c0,0.365-0.091,0.729-0.091,1.002c0,0.365,0,0.638,0,1.002c0,0.639,0.091,1.277,0.182,1.915
		c0.091,0.639,0.274,1.276,0.364,1.824c0.183,0.638,0.274,1.185,0.456,1.822c0.365,1.186,0.73,2.279,1.094,3.464l2.826,4.194
		l-0.273-5.013l-0.366-0.821c-0.182-0.273-0.273-0.547-0.455-0.729c-0.183-0.274-0.365-0.456-0.548-0.729
		c-0.182-0.183-0.364-0.457-0.637-0.639c-0.182-0.183-0.456-0.364-0.639-0.638l-0.364-0.274c-0.091-0.091-0.273-0.182-0.364-0.274
		c-0.274-0.182-0.547-0.273-0.82-0.364l-0.912-0.275l-0.912-0.273l-0.455,0.821l-0.548,0.912c-0.182,0.273-0.273,0.637-0.455,0.912
		c-0.183,0.273-0.273,0.637-0.364,0.911c-0.091,0.365-0.182,0.638-0.274,1.002c-0.091,0.366-0.091,0.639-0.182,1.003
		c0,0.366-0.091,0.639-0.091,1.003v1.002l0.091,1.003l0.091,0.912l0.091,0.911c0.092,0.639,0.183,1.186,0.365,1.823l0.364,1.733
		c0.091,0.546,0.182,1.185,0.274,1.731l1.732-0.637c-0.091-0.182-0.273-0.366-0.364-0.548l-0.365-0.455
		c-0.273-0.274-0.546-0.547-0.819-0.73l-0.821-0.637c-0.091-0.092-0.273-0.183-0.365-0.274c-0.091-0.091-0.182-0.183-0.273-0.273
		l-0.729-0.638l-0.547,0.547l-0.912,1.003c-0.273,0.364-0.456,0.729-0.729,1.093c-0.183,0.365-0.366,0.73-0.548,1.186
		c-0.091,0.364-0.273,0.82-0.364,1.185c-0.091,0.456-0.183,0.821-0.273,1.276c0,0.456-0.091,0.821-0.091,1.276
		c0,0.457,0,0.82,0,1.276c0,0.456,0.091,0.821,0.091,1.186c0.091,0.365,0.091,0.82,0.182,1.185l0.272,1.185l0.365,1.187l0.457,1.094
		l0.546,1.093c0.182,0.366,0.366,0.73,0.639,1.095c0.183,0.364,0.456,0.638,0.637,1.002c0.274,0.365,0.457,0.639,0.73,0.912
		l0.273-0.182c-0.182-0.365-0.455-0.639-0.637-1.003c-0.182-0.365-0.366-0.729-0.547-1.003c-0.183-0.364-0.364-0.729-0.456-1.094
		l-0.457-1.094l-0.364-1.094l-0.274-1.094l-0.182-1.185c0-0.365-0.091-0.729-0.091-1.185c0-0.365,0-0.729,0-1.186
		c0-0.364,0.091-0.729,0.091-1.093c0-0.364,0.091-0.728,0.182-1.094c0.091-0.364,0.183-0.729,0.274-1.094
		c0.091-0.364,0.273-0.637,0.364-1.002c0.184-0.365,0.365-0.638,0.548-0.911l0.637-0.821l0.73-0.729l-1.186-0.091
		c0.091,0.183,0.274,0.273,0.364,0.456c0.091,0.092,0.274,0.274,0.366,0.365l0.729,0.73l0.365,0.364l0.365,0.365l0.273,0.364
		c0.091,0.093,0.183,0.183,0.183,0.274l2.188,3.007l-0.364-3.646c-0.091-0.638-0.183-1.185-0.273-1.823l-0.274-1.824
		c-0.092-0.547-0.183-1.185-0.274-1.733l-0.091-0.819l-0.091-0.821v-0.82v-0.821c0-0.273,0.091-0.546,0.091-0.819
		c0.091-0.274,0.091-0.548,0.182-0.821c0.091-0.273,0.183-0.546,0.274-0.73c0.091-0.273,0.183-0.455,0.273-0.728
		c0.091-0.274,0.274-0.457,0.365-0.729l0.457-0.639l-1.368,0.547c0.183,0.091,0.365,0.091,0.547,0.182
		c0.183,0.091,0.365,0.183,0.456,0.274c0.091,0.091,0.183,0.091,0.273,0.182l0.184,0.184c0.182,0.091,0.273,0.273,0.455,0.364
		c0.091,0.183,0.274,0.274,0.365,0.456l0.365,0.548l0.273,0.546l0.273,0.547l2.552-0.911c-0.364-1.186-0.729-2.279-1.001-3.374
		c-0.184-0.546-0.274-1.094-0.366-1.64c-0.091-0.548-0.181-1.094-0.272-1.642c-0.091-0.547-0.091-1.094-0.091-1.64
		c0-0.274,0-0.548,0-0.821s0-0.547,0.091-0.729c0-0.273,0.091-0.456,0.091-0.729c0-0.091,0.09-0.274,0.09-0.365l0.091-0.364
		c0-0.091,0.092-0.274,0.092-0.364l0.091-0.274c0.091-0.091,0.091-0.183,0.091-0.273l0.274-0.364l0.274-0.364
		c0,0,0.09-0.093-0.091,0.09l0,0l0,0l0,0l0,0l0.091-0.09l0.09-0.184c0.183-0.182,0.364-0.365,0.456-0.546
		c0.366-0.364,0.73-0.547,1.003-0.73c0.274-0.09,0.456-0.09,0.73-0.09c0.273,0.09,0.546,0.273,0.821,0.547
		c0.637,0.637,1.275,1.549,1.731,2.552c0.547,1.003,1.002,2.006,1.55,3.1l2.826,3.646l0.182-4.74
		c-0.364-1.459-0.729-3.009-1.003-4.558c-0.273-1.551-0.365-3.1-0.456-4.65c0-1.55,0-3.099,0.274-4.466
		c0.274-1.368,0.82-2.736,1.641-3.465c0.091-0.091,0.182-0.183,0.273-0.273c0,0,0.182-0.091,0.182-0.183l0.273-0.183l0.364-0.182
		c0.183-0.091,0.274-0.091,0.364-0.183c0.183-0.09,0.274-0.09,0.365-0.09s0.184,0,0.273,0c0.183,0,0.273,0,0.456,0.09
		c0.274,0.183,0.639,0.638,0.911,1.186c0.273,0.637,0.455,1.275,0.639,2.004c0.366,1.459,0.546,3.009,0.639,4.65
		c0.091,0.82,0.091,1.549,0.182,2.37c0.091,0.82,0.091,1.64,0.182,2.552l2.645-0.365c-0.273-1.55-0.273-3.19-0.183-4.741
		c0.091-1.641,0.364-3.189,0.821-4.831c0.456-1.549,0.91-3.1,1.642-4.649c0.637-1.458,1.364-3.009,2.277-4.375
		c0.183-0.365,0.457-0.73,0.637-1.003c0.273-0.364,0.457-0.729,0.731-1.003l0.728-1.003l0.821-0.91
		c0.274-0.274,0.546-0.639,0.82-0.912l0.454-0.457c0.092-0.091,0.277-0.273,0.457-0.456c0.639-0.548,1.277-1.094,1.914-1.64
		c0.641-0.548,1.276-1.003,2.005-1.368c0.731-0.364,1.461-0.729,2.098-0.729c0.272,0,0.549,0.09,0.729,0.273
		c0.184,0.182,0.363,0.456,0.456,0.82c0.182,0.729,0.182,1.55,0.093,2.279c-0.186,1.55-0.821,3.099-1.55,4.649
		c-0.731,1.55-1.552,3.008-2.463,4.468c-0.819,1.458-1.732,3.007-2.369,4.557c-0.729,1.55-1.37,3.1-2.006,4.74
		c-1.277,3.191-2.37,6.382-3.282,9.664c-0.911,3.281-1.732,6.653-2.279,10.026c-0.639,3.374-1.003,6.746-1.277,10.211
		c-0.089,0.82-0.089,1.732-0.18,2.553l-0.093,2.552c0,0.821,0,1.733,0,2.553c0,0.456,0,0.82,0,1.277l0.093,1.275
		c0.091,0.82,0.091,1.732,0.18,2.553l0.274,2.552c0.09,0.821,0.275,1.733,0.364,2.554c0.091,0.455,0.091,0.819,0.184,1.276
		l0.273,1.276c0.639,3.373,1.731,6.745,3.009,9.937c1.274,3.189,2.734,6.289,4.375,9.389l1.185,2.279
		c0.365,0.73,0.822,1.549,1.276,2.279l2.462,4.467c1.639,2.917,3.188,5.925,4.559,9.024c0.637,1.55,1.276,3.101,1.73,4.741
		c0.182,0.821,0.367,1.642,0.456,2.461c0,0.456,0,0.821,0,1.186c0,0.183-0.089,0.364-0.089,0.547c0,0.182-0.186,0.364-0.186,0.546
		L172.51,123.657z"/>
</g>
</svg>
