<?xml version="1.0" encoding="utf-8"?>
<!-- Generator: Adobe Illustrator 15.0.0, SVG Export Plug-In . SVG Version: 6.00 Build 0)  -->
<!DOCTYPE svg PUBLIC "-//W3C//DTD SVG 1.1//EN" "http://www.w3.org/Graphics/SVG/1.1/DTD/svg11.dtd">
<svg version="1.1" id="Layer_1" xmlns="http://www.w3.org/2000/svg" xmlns:xlink="http://www.w3.org/1999/xlink" x="0px" y="0px"
	 width="283.46px" height="283.46px" viewBox="0 0 283.46 283.46" enable-background="new 0 0 283.46 283.46" xml:space="preserve">
<g>
	<path fill="#70A4D8" d="M105.069,237.79c-0.275,0-0.555,0-0.828,0c0.801-7.353,1.019-18.358,2.479-27.258
		c0.093-0.569-0.062-1.917,0.83-2.201C106.57,217.833,105.763,228.922,105.069,237.79z"/>
	<path fill="#70A4D8" d="M76.984,280.194c-0.373-4.63,1.811-9.022,2.753-13.496c0.506-2.404,0.939-4.648,1.652-6.878
		c3.248-10.2,4.517-22.908,9.361-32.493c0.147-4.618,1.686-7.854,3.58-10.735c0.729-1.749,0.573-4.388,1.374-6.061
		c-3.602,0-2.841,5.312-6.885,5.23c-1.769-0.032-3.357-2.057-3.575-3.302c-0.581-3.232,1.838-5.459,3.302-8.535
		c1.404-2.947,2.448-8.123,0.551-11.292c-1.249-2.078-4.828-4.621-7.71-5.5c-4.19-1.299-6.418,0.578-8.261,3.297
		c-0.879,1.294-1.69,3.902-4.403,3.303c-1.461-3.622,3.617-4.59,4.955-7.152c-0.664-1.886-3.238-3.039-5.233-4.414
		c-1.122-0.764-3.121-2.41-5.786-1.644c-1.363,0.389-2.069,2.447-3.301,3.572c-1.714,1.568-3.816,2.352-5.229,3.579
		c-1.234,3.312-8.924,8.729-11.843,4.416c-2.584-3.831,2.078-5.868,3.58-8.537c2.944-1.478,4.896-3.028,6.335-6.336
		c0.425-0.978,0.618-2.418,1.099-3.306c1.554-2.878,4.153-4.399,5.506-6.884c-0.324-1.96-0.263-3.011-1.1-4.681
		c-1.036-2.063-3.783-2.868-4.405-4.406c-0.755-1.868,0.157-5.15-0.827-7.712c-0.643-1.673-2.443-3.404-3.305-5.777
		c-0.22-0.613-0.081-1.544-0.272-2.207c-0.708-2.409-2.356-4.743-3.307-7.155c-0.499-1.271-0.928-2.542-1.376-3.857
		c-0.432-1.261-1.184-2.638-1.374-3.58c-0.531-2.601-0.118-4.139-1.103-5.782c-1.09-1.821-3.93-3.473-5.782-4.13
		c-2.03-0.704-5.182-0.064-7.981-0.824c-1.626-0.438-4.474-2.267-4.404-4.406c0.063-2.215,2.438-2.611,4.124-3.851
		c1.831-1.352,2.63-2.76,3.581-3.854c-0.239-0.957-0.48-1.913-1.103-2.484c1.848-4.097,1.687-9.205,4.956-11.841
		c1.371-1.095,3.115-1.248,4.678-2.476c-0.177-2.925,1.409-4.082,2.206-6.331c0.312-0.888,0.134-2.163,0.551-3.029
		c1.38-2.86,5.556-3.638,6.335-6.057c0.445-1.381-0.278-2.731,0-3.851c0.202-0.839,0.799-2.163,1.649-2.759
		c2.04-1.417,5.828-0.446,7.988-1.656c1.665-0.928,3.487-2.894,4.954-4.398c2.844-2.925,7.696-5.775,11.291-8.263
		c1.667-3.832,4.901-7.467,6.881-11.562c1.712-3.539,2.718-8.045,7.985-7.986c1.139-0.986,2.655-1.461,3.58-2.759
		c2.44-3.404,1.385-9.025-0.278-12.387c0.798-0.916,0-1.7,0.556-2.75c-1.242-1.445-1.164-3.229-1.927-4.684
		c-0.787-1.501-2.043-3.104-3.029-4.407c-1.017-1.327-2.873-2.211-3.03-4.128c1.759-0.632,3.202,0.729,4.955,1.098
		c2.37,0.516,4.493,0.27,6.338,1.655c0.995,0.75,1.976,2.268,2.749,3.301c0.857,1.146,1.975,2.455,2.205,3.859
		c1.579,1.586,3.47,3.123,4.955,4.955c1.2,1.495,1.615,3.51,3.855,3.856c1.809,0.279,3.856-0.961,5.784-1.654
		c1.743-0.629,3.565-1.497,6.058-1.375c3.661,0.183,6.567,2.426,9.912,0.827c4.274-2.045,2.647-11.66,8.533-11.286
		c5.199,0.322,2.797,8.374,3.302,12.111c2.283,2.297,5.882,1.908,8.264,0.551c3.571-2.028,5.2-7.35,8.809-7.432
		c5.058-0.107,6.274,7.042,4.681,11.289c-0.555,1.486-2.357,4.135-3.58,5.781c-0.662,0.906-1.21,2.381-1.926,3.306
		c-1.199,1.552-3.178,2.447-4.404,3.858c-1.1,1.251-1.521,2.96-2.478,4.124c-0.733,0.896-2.503,2.056-3.306,3.306
		c-1.408,7.342,2.412,11.561,9.362,9.088c1.946,1.1,4.347,3.237,8.261,2.75c2.957-0.367,5.125-3.064,7.98-3.578
		c1.83-0.332,3.627,0.359,5.51,0.273c0.892-0.035,2.573-0.322,4.129-0.549c1.685-0.255,3.498-0.77,5.231-1.106
		c2.46-0.465,5.106-0.567,7.163-1.378c1.408-0.544,2.842-1.492,4.403-2.197c0.771-0.352,1.735-0.426,2.481-0.829
		c0.609-0.333,0.985-1.07,1.648-1.375c2.013-0.951,4.354-1.579,6.332-2.757c2.926-1.728,4.223-3.841,9.36-2.75
		c1.935,0.41,3.809,2.555,6.611,3.031c1.362,0.232,3.052-0.008,4.401,0.271c2.714,0.577,4.784,2.286,6.055,2.481
		c4.881,0.748,9.396-1.883,14.32-0.277c3.896,1.268,7.194,5.562,7.713,8.535c0.506,2.867-0.846,7.619-2.207,9.36
		c-1.302,1.686-2.844,1.201-4.953,3.857c-1.904,0.24-3.385,1.419-4.958,2.203c-1.914,0.954-4.116,1.457-5.505,2.753
		c-0.871,0.804-1.617,1.601-2.477,2.476c-2.213,2.262-4.871,4.299-7.715,6.33c-3.72,1.371-6.6,2.708-11.289,3.856
		c-2.239,0.56-3.993,1.257-6.881,1.379c-5.843,0.246-12.703,0.088-15.142,4.678c-0.886,1.666-0.722,4.864-1.378,7.439
		c-0.188,0.723-0.775,1.357-0.826,1.928c-0.512,5.266,1.027,11.045-1.377,15.143c-1.195,2.031-3.219,3.221-4.41,4.962
		c-1.826,2.658-3.084,6.183-3.576,10.736c-0.178,1.633,0.241,3.444,0,5.229c-0.418,3.084-3.182,8.018-1.654,10.189
		c0.829,1.171,2.426,0.774,4.129,1.376c2.929,1.029,6.938,3.909,8.541,5.778c0.498,0.583,0.993,1.763,1.648,2.758
		c0.564,0.839,1.478,1.652,1.654,2.478c0.576,2.629-0.429,4.688-0.277,7.159c0.176,2.832,1.268,7.094,4.128,7.432
		c1.013,0.124,2.329-0.296,3.31-0.27c2.311,0.05,5.33,0.635,7.703,1.649c2.746,1.161,6.732,3.491,6.885,6.887
		c0.115,2.401-1.551,3.76-3.58,4.95c-3.254-0.428-5.758,0.909-9.085-0.275c-1.964-0.696-3.774-2.539-6.058-3.576
		c-0.76-0.352-1.826-0.456-2.752-0.823c-3.719-1.503-7.881-3.237-12.394-4.685c-3.505-1.128-6.374-2.592-8.258,0.559
		c-1.743-0.188-2.931,0.183-3.852,0.821c1.028,3.098,3.339,6.923,1.647,11.008c-3.051-1.23-1.359-6.575-3.576-9.082
		c-1.479-1.675-4.55-2.383-5.785,0.272c-0.332,4.42,0.281,8.675,2.482,11.288c0.643,2.44,3.199,5.296,1.097,7.99
		c-5.269,1.829-8.396-2.646-12.388-3.857c-1.361,0.312-2.626,0.565-3.854,0.824c-3.044,0.646-5.086,0.481-7.987,0.276
		c-5.12-0.362-9.951,0.521-13.489,3.581c-4.215,3.638-4.584,15.993-2.755,22.85c0.568,2.147,1.515,4.175,1.929,6.338
		c0.363,1.896-0.146,3.405,0,4.954c0.107,1.149,0.903,2.347,1.101,3.578c0.2,1.252,0.005,2.785,0,4.13
		c-0.004,1.099,0.883,2.77-0.83,3.304c-2.274-1.431-1.044-6.187-1.373-9.637c-0.206-2.139-1.265-4.536-2.203-6.057
		c0.238-4.305-1.163-9.037-2.759-12.392c-1.932-0.057-3.513,1.007-4.954,1.654c-3.615,1.626-6.508,2.803-6.881,8.259
		c-0.146,2.143,0.343,4.94,0.274,7.712c-0.068,2.62-0.447,5.337-0.274,7.156c0.227,2.38,1.45,3.817,1.097,6.334
		c-0.217,1.587-2.438,6.215-4.126,6.609c-1.168,0.275-2.26-0.308-3.303-0.272c-2.486-2.337-2.231-7.439-1.101-11.567
		c0.791-2.901,2.092-5.584,1.65-10.186c-0.087-0.896-0.428-1.801-0.55-2.754c-0.11-0.855,0.093-1.827,0-2.757
		c-0.125-1.219-0.809-2.489-0.825-3.581c-0.023-1.494,0.891-5.22,0.825-7.429c-0.079-2.698-1.049-6.849-1.101-9.642
		c-0.072-3.465,0.382-5.582-1.927-5.781c-2.503-0.214-2.248,1.984-3.58,3.308c-0.076,2.498,0.403,5.545-1.376,6.326
		c-1.117-1.952,0.879-5.649-1.928-6.326c-2.461-0.593-3.175,1.963-4.685,3.58c0.509,2.436-1.419,2.941-0.549,4.953
		c-1.379,1.637-1.514,3.865-1.925,5.787c-1.645,7.572-3.097,13.403-5.508,20.369c-1.212,3.5-2.188,7.042-3.302,10.742
		c-0.853,2.788-1.305,6.223-2.204,9.637c-0.059,0.223-0.369,0.515-0.554,1.372c-0.595,2.759-1.349,6.287-2.196,9.637
		c-0.762,2.98-1.767,5.573-2.209,9.366c-0.561,0.084-0.544,0.743-1.1,0.826C77.352,280.195,77.165,280.195,76.984,280.194z"/>
</g>
<path fill="#70A4D8" d="M23.419,122.45c2.731-0.649,6.172-1.441,8.394,0.651c0.663,0.617,2.244,2.747,2.59,3.876
	c1.699,5.542-1.642,9.329-6.138,10.023c-3.643,0.555-8.49-3.663-8.41-7.764C19.901,126.734,21.331,124.46,23.419,122.45z"/>
<g>
	<g>
		<path fill="#040404" d="M96.037,101.474l-0.005,0.001c-0.029-0.068-0.093-0.201-0.19-0.38l0,0
			c-0.197-0.354-0.538-0.886-1.055-1.459l0,0c-1.049-1.145-2.703-2.461-5.698-3.085l0,0c-0.875-0.176-1.691-0.262-2.455-0.28l0,0
			c-2.144-0.054-3.887,0.418-5.134,0.926l0,0c-1.151,0.469-1.861,0.969-1.972,1.05l0,0c-1.6,1.268-3.93,1.006-5.211-0.59l0,0
			c-1.285-1.604-1.027-3.947,0.575-5.231l0,0c0.196-0.155,1.37-1.07,3.402-1.957l0,0c2.032-0.88,4.949-1.727,8.523-1.639l0,0
			c1.189,0.03,2.446,0.164,3.757,0.431l0,0c4.653,0.935,7.853,3.271,9.741,5.395l0,0c1.909,2.125,2.608,3.992,2.725,4.308l0,0
			c0.693,1.937-0.313,4.064-2.252,4.755l0,0c-0.444,0.159-0.896,0.229-1.343,0.218l0,0C97.955,103.9,96.571,102.962,96.037,101.474
			L96.037,101.474z"/>
	</g>
	<g>
		<path fill="#040404" d="M143.785,102.662l0.003,0.002c0.032-0.068,0.104-0.197,0.209-0.371l0,0c0.215-0.345,0.58-0.86,1.126-1.408
			l0,0c1.105-1.09,2.822-2.324,5.846-2.797l0,0c0.881-0.132,1.701-0.176,2.465-0.157l0,0c2.145,0.053,3.861,0.61,5.084,1.179l0,0
			c1.125,0.525,1.807,1.061,1.916,1.147l0,0c1.537,1.346,3.873,1.2,5.234-0.331l0,0c1.362-1.536,1.222-3.889-0.316-5.254l0,0
			c-0.188-0.165-1.312-1.136-3.301-2.122l0,0c-1.983-0.98-4.857-1.974-8.43-2.061l0,0c-1.188-0.03-2.451,0.041-3.771,0.243l0,0
			c-4.695,0.701-8.009,2.877-10,4.903l0,0c-2.012,2.03-2.804,3.859-2.935,4.168l0,0c-0.79,1.897,0.112,4.076,2.011,4.862l0,0
			c0.436,0.182,0.887,0.271,1.333,0.284l0,0C141.748,104.988,143.178,104.12,143.785,102.662L143.785,102.662z"/>
	</g>
	<path fill="#281E14" d="M69.184,111.745c0,0,48.587,14.421,99.131,2.462c0,0-12.984,43.227-50.74,42.289
		C79.262,155.544,69.184,111.745,69.184,111.745z"/>
	<path fill="#FFFFFF" d="M81.658,118.057c0,0,18.144,4.309,35.864,4.75c17.728,0.441,35.698-2.16,35.698-2.16
		s-10.609,18.22-36.25,17.582C91.33,137.591,81.658,118.057,81.658,118.057z"/>
</g>
</svg>
