<?xml version="1.0" encoding="utf-8"?>
<!-- Generator: Adobe Illustrator 15.0.0, SVG Export Plug-In . SVG Version: 6.00 Build 0)  -->
<!DOCTYPE svg PUBLIC "-//W3C//DTD SVG 1.1//EN" "http://www.w3.org/Graphics/SVG/1.1/DTD/svg11.dtd">
<svg version="1.1" id="Layer_1" xmlns="http://www.w3.org/2000/svg" xmlns:xlink="http://www.w3.org/1999/xlink" x="0px" y="0px"
	 width="841.89px" height="595.28px" viewBox="0 0 841.89 595.28" enable-background="new 0 0 841.89 595.28" xml:space="preserve">
<g>
	<path fill-rule="evenodd" clip-rule="evenodd" fill="#8DC63F" d="M802.928,405.446c-4.685-2.838-2.041-10.166-4.012-14.911
		c-1.599-3.828-4.934-3.862-6.895-6.878c-11.98-2.73-21.453-8.001-29.242-14.923c-2.52-5.726-6.623-10.276-11.483-14.905
		c-2.374-2.258-5.856-4.971-5.724-7.473c0.456-8.828,14.729-3.465,17.775,2.315c10.23-1.013,18.583,5.282,25.829,10.317
		c1.953,1.35,4.757,2.264,6.286,3.439c1.442,1.088,1.953,3.25,3.453,4.573c4.812,4.365,13.776,6.327,16.055,9.188
		c6.345,7.934-3.703,16.324-9.176,20.657C805.252,400.37,806.023,403.577,802.928,405.446z"/>
	<path fill-rule="evenodd" clip-rule="evenodd" fill="#8DC63F" d="M741.556,295.886c-2.722,0.435-3.137-1.443-4.585-2.286
		c-0.447-2.747,0.804-3.787,2.293-4.586C742.984,289.804,743.875,293.029,741.556,295.886z"/>
	<path fill-rule="evenodd" clip-rule="evenodd" fill="#8DC63F" d="M470.223,428.394c-9.517,2.356-11.733-8.869-5.163-11.483
		C470.751,416.866,474.059,424.084,470.223,428.394z"/>
	<path fill-rule="evenodd" clip-rule="evenodd" fill="#8DC63F" d="M448.999,411.184c-1.679-0.612-3.015-1.599-2.861-4.017
		C449.53,403.224,453.816,409.803,448.999,411.184z"/>
	<path fill-rule="evenodd" clip-rule="evenodd" fill="#8DC63F" d="M427.783,439.3c4.854-1.158,10.954-2.568,14.901,1.138
		c1.175,1.108,3.979,4.884,4.594,6.884c3.019,9.844-2.917,16.565-10.897,17.787c-6.454,0.986-15.057-6.495-14.914-13.776
		C421.544,446.895,424.084,442.854,427.783,439.3z"/>
	<path fill-rule="evenodd" clip-rule="evenodd" fill="#8DC63F" d="M401.965,393.978c-4.223-4.516-7.779-12.268-2.876-18.371
		c0.646-0.789,6.129-4.332,7.464-4.582C427.108,367.304,424.566,404.559,401.965,393.978z"/>
	<path fill-rule="evenodd" clip-rule="evenodd" fill="#8DC63F" d="M479.404,388.239c-5.87,1.635-11.042,0.871-15.494,2.865
		c-3.441,1.547-5.74,5.624-10.322,4.591c-2.473-1.532-2.764-4.876-4.589-6.869c-1.251-1.394-3.674-2.081-5.16-3.463
		c-2.632-2.411-3.961-6.419-6.323-8.599c-2.255-2.109-5.668-2.565-7.45-5.172c-4.472-1.265-8.593-1.352-12.618-3.424
		c-2.646-1.367-5.657-4.066-8.602-6.312c-1.905-1.457-10.231-7.69-14.346-7.449c-3.65,0.188-7.812,4.916-10.895,7.449
		c-3.56,2.932-6.033,5.996-10.333,7.453c1.152-3.529,6.958-5.178,5.734-9.183c-7.502-0.032-20.117-0.229-25.797,3.438
		c-2.195-0.109-2.171-2.42-4.02-2.861c-5.755,0.668-11.116,2.598-16.064,1.152c-0.639-3.125,3.141-1.828,2.873-4.597
		c0.277-1.8-2.631-0.427-2.873-1.721c0.302-3.7,3.664-4.362,4.592-7.453c-6.331-0.354-11.366,3.485-16.072,2.858
		c-2.554-1.254,0.49-8.111-5.149-6.286c3.796-4.817,12.705-4.513,13.194-12.639c-1.284-2.159-4.04-2.841-5.736-4.579
		c2.561-4.037,6.868-7.424,4.003-12.059c-1.501-2.414-4.413-1.906-6.887-3.441c-8.824-5.468-15.005-20.246-9.18-32.689
		c-1.086-6.806-1.783-15.24-6.301-20.069c0-3.835,0-7.656,0-11.49c0.982-2.072,2.273-3.827,3.44-5.743
		c1.279-8.921,0.586-16.293,3.441-23.51c2.763-6.984,10.539-11.97,5.157-21.793c-4.378-3.722-12.42,2.773-18.922,2.31
		c-3.703-0.278-9.112-4.179-11.492-7.477c-1.194-1.697-3.697-5.505-3.419-10.322c0.143-2.74,2.625-8.807,4.578-11.481
		c2.802-3.792,8.035-5.369,9.187-11.459c1.376-7.245-0.974-13.466,0-18.934c0.72-4.086,2.957-6.393,4.014-10.903
		c4.208-1.541,6.394-5.592,10.897-6.315c9.133-1.459,17.172,5.619,22.374,9.758c1.085,4.445,2.557,8.587,6.314,10.327
		c5.802,2.705,13.792-0.405,19.505-0.573c1.553-2.667,3.962-4.448,5.736-6.884c1.467-6.314,3.528-16.132,8.024-21.228
		c2.172-2.445,9.545-7.67,13.195-9.184c3.889-1.618,8.591-1.601,13.194-3.439c5.179-2.061,8.355-6.588,13.771-7.457
		c5.098-0.805,10.019,0.422,14.334-1.146c1.552-0.56,2.882-2.166,4.594-2.86c1.657-0.675,3.247-0.457,4.579-1.164
		c2.27-1.154,8.101-5.173,10.909-8.013c5.021-5.089,6.492-10.998,9.757-11.481c8.199-1.168,8.132,16.793,20.077,14.344
		c1.425-5.995-7.003-14.688-6.326-18.928c4.445,7.985,7.983,16.864,13.779,23.51c3.032-0.715,4.988,1.59,7.464,1.731
		c5.43,0.3,10.169-2.888,14.896-3.439c9.33-1.122,17.309,1.425,24.674,4.02c3.509,1.226,8.178,3.002,10.906,4.58
		c2.42,1.401,4.411,4.243,6.881,5.731c2.682,1.625,5.68,2.383,8.021,4.011c3.903,2.705,6.355,5.475,10.912,7.466
		c5.4,2.352,11.109,4.231,16.062,7.463c5.529-0.749,6.986,2.558,11.461,2.854c5.256,4.16,10.23,7.996,15.5,12.629
		c3.082,2.716,5.531,5.431,8.594,8.017c5.334,0.612,7.203,4.691,11.469,6.325c4.91,6.761,11.894,11.433,14.926,20.07
		c2.229,3.333,5.967,5.129,8.607,8.026c1.965-0.249,3.21,0.246,4.583,0.577c2.829,3.635,9.568,4.995,11.469,10.332
		c1.735,4.897,0.056,9.196-1.724,14.343c-6.73,4.928-14.67,8.65-21.795,13.195c-4.646,5.855-5.775,15.253-9.162,22.365
		c1.332,1.919-0.319,6.806,1.129,8.601c-0.006,2.099-2.98,1.222-2.287,4.024c0.406,5.359,3.326,10.333,4.011,16.631
		c1.114,10.237-0.336,21.68,2.296,31.556c3.326,12.508,11.728,21.188,16.629,30.405c2.212,2.43,5.07,3.41,7.465,5.734
		c1.973,1.898,2.951,4.992,5.162,6.875c3.184,2.729,7.996,4.635,12.047,6.901c0.979,0.546,1.881,1.817,2.873,2.272
		c4.199,2.029,10.039,3.727,12.035,8.611c5.758,2.086,8.564,7.118,13.205,10.328c5.009,0.09,7.565,3.291,11.472,5.723
		c2.362,1.492,5.497,2.212,6.878,3.469c1.355,1.225,2.072,3.859,3.437,5.154c1.822,1.688,3.903,1.9,5.174,3.438
		c0.331,0.409,0.491,1.831,1.141,2.867c4.911,7.761,5.828,20.968-2.289,26.964c-0.926,0.676-3.39,1.416-5.169,2.284
		c-4.377,2.165-12.851,3.627-19.502,1.151c-1.193-0.449-2.09-1.718-3.437-2.283c-2.188-0.932-5.241-0.502-6.89-1.152
		c-6.544-2.565-16.139-11.797-22.381-17.213c-2.496-2.165-5.456-4.062-6.875-5.731c-1.588-1.866-1.666-4.237-2.859-5.729
		c-2.664-3.347-8.07-5.354-12.052-9.188c-3.132-3.023-5.01-7.168-7.462-9.185c-2.85-2.331-7.075-3.663-10.322-6.304
		c-2.842-2.328-4.937-5.584-8.051-8.042c-1.057-0.851-3.154-1.329-4.565-2.278c-0.702-0.479-0.876-1.257-1.727-1.738
		c-5.14-2.823-11.292-8.538-18.937-4.573c-5.2,2.692-8.425,8.868-15.482,10.897c-3.703,1.064-8.721,1.465-12.047,1.712
		c-12.169,0.929-22.654-3.407-34.413-7.456c-5.375,0.172-11.701-0.312-16.635,1.736c-4.92,2.025-8.425,7.801-13.768,9.742
		c-1.591,0.58-3.587,0.11-5.166,0.58c-3.419,1.01-8.825,4.438-13.19,6.295c-2.96,1.266-8.129,2.025-11.475,4.025
		C483.412,377.774,481.877,384.043,479.404,388.239z"/>
</g>
<g>
	<g>
		<path fill-rule="evenodd" clip-rule="evenodd" fill="#F7941E" d="M282.843,505.886c-0.443,0.096-0.395-0.299-0.409-0.615
			c0.167,0.038,0.2,0.209,0.409,0.203C282.843,505.61,282.843,505.744,282.843,505.886z"/>
		<path fill-rule="evenodd" clip-rule="evenodd" fill="#F7941E" d="M288.589,493.36c0-0.137,0-0.281,0-0.412
			C289.592,492.742,288.968,494.042,288.589,493.36z"/>
	</g>
</g>
<g>
	<path fill-rule="evenodd" clip-rule="evenodd" fill="#F7941E" d="M174.686,470.482c-0.489,0-0.985,0-1.469,0
		c1.421-13.048,1.807-32.579,4.398-48.372c0.165-1.01-0.11-3.401,1.473-3.906C177.35,435.065,175.917,454.745,174.686,470.482z"/>
	<path fill-rule="evenodd" clip-rule="evenodd" fill="#F7941E" d="M592.463,300.438c-1.045,0.229-0.938-0.7-0.973-1.46
		c0.4,0.094,0.477,0.494,0.973,0.49C592.463,299.794,592.463,300.11,592.463,300.438z"/>
	<path fill-rule="evenodd" clip-rule="evenodd" fill="#F7941E" d="M606.141,270.64c0-0.33,0-0.661,0-0.982
		C608.525,269.168,607.043,272.263,606.141,270.64z"/>
	<path fill-rule="evenodd" clip-rule="evenodd" fill="#F7941E" d="M124.849,545.734c-0.663-8.216,3.213-16.011,4.886-23.949
		c0.896-4.268,1.666-8.249,2.93-12.205c5.764-18.104,8.016-40.655,16.613-57.665c0.263-8.195,2.992-13.936,6.355-19.05
		c1.293-3.104,1.016-7.786,2.437-10.755c-6.391,0-5.041,9.426-12.218,9.281c-3.136-0.056-5.958-3.648-6.343-5.859
		c-1.03-5.734,3.261-9.685,5.859-15.146c2.491-5.229,4.345-14.415,0.977-20.039c-2.216-3.686-8.568-8.201-13.681-9.76
		c-7.439-2.305-11.391,1.027-14.661,5.851c-1.559,2.296-2.999,6.925-7.815,5.862c-2.592-6.428,6.421-8.146,8.795-12.694
		c-1.18-3.346-5.746-5.392-9.288-7.832c-1.992-1.355-5.537-4.278-10.268-2.917c-2.419,0.688-3.673,4.342-5.859,6.338
		c-3.04,2.783-6.771,4.174-9.278,6.351c-2.189,5.879-15.837,15.491-21.016,7.838c-4.584-6.799,3.688-10.415,6.354-15.151
		c5.224-2.621,8.688-5.375,11.241-11.243c0.753-1.735,1.099-4.292,1.95-5.868c2.757-5.107,7.37-7.807,9.771-12.215
		c-0.576-3.477-0.466-5.343-1.953-8.306c-1.837-3.663-6.713-5.091-7.818-7.821c-1.338-3.314,0.281-9.139-1.466-13.684
		c-1.141-2.969-4.336-6.042-5.866-10.253c-0.391-1.089-0.143-2.74-0.483-3.916c-1.257-4.277-4.184-8.417-5.868-12.699
		c-0.887-2.255-1.648-4.511-2.443-6.844c-0.765-2.238-2.1-4.683-2.439-6.355c-0.944-4.613-0.209-7.343-1.956-10.26
		c-1.933-3.231-6.974-6.164-10.262-7.33c-3.602-1.25-9.195-0.114-14.164-1.463c-2.886-0.778-7.938-4.022-7.815-7.818
		c0.113-3.931,4.327-4.633,7.319-6.835c3.249-2.398,4.668-4.896,6.355-6.838c-0.425-1.698-0.852-3.394-1.957-4.408
		c3.279-7.269,2.993-16.336,8.795-21.013c2.434-1.943,5.527-2.214,8.302-4.394c-0.313-5.192,2.5-7.243,3.915-11.234
		c0.553-1.575,0.236-3.838,0.977-5.376c2.449-5.075,9.858-6.457,11.241-10.748c0.791-2.451-0.493-4.846,0-6.834
		c0.358-1.489,1.419-3.838,2.927-4.896c3.622-2.516,10.342-0.791,14.177-2.94c2.953-1.646,6.188-5.135,8.792-7.805
		c5.044-5.192,13.657-10.248,20.036-14.663c2.959-6.8,8.699-13.252,12.211-20.52c3.037-6.279,4.823-14.275,14.171-14.171
		c2.019-1.75,4.712-2.593,6.352-4.896c4.331-6.041,2.458-16.017-0.493-21.982c1.416-1.625,0-3.016,0.985-4.88
		c-2.204-2.565-2.066-5.732-3.419-8.313c-1.398-2.664-3.625-5.508-5.375-7.821c-1.804-2.355-5.098-3.924-5.379-7.327
		c3.121-1.122,5.684,1.293,8.795,1.949c4.205,0.914,7.974,0.478,11.247,2.938c1.765,1.329,3.506,4.025,4.877,5.858
		c1.523,2.034,3.506,4.356,3.915,6.848c2.802,2.815,6.158,5.542,8.792,8.792c2.13,2.652,2.867,6.229,6.842,6.843
		c3.21,0.495,6.845-1.704,10.264-2.934c3.094-1.116,6.328-2.657,10.751-2.441c6.496,0.324,11.656,4.305,17.59,1.466
		c7.585-3.629,4.698-20.692,15.141-20.029c9.226,0.572,4.964,14.862,5.862,21.493c4.05,4.076,10.438,3.385,14.664,0.977
		c6.337-3.599,9.228-13.043,15.631-13.19c8.977-0.19,11.133,12.498,8.308,20.033c-0.986,2.638-4.187,7.338-6.355,10.26
		c-1.176,1.609-2.147,4.226-3.419,5.867c-2.126,2.754-5.639,4.342-7.815,6.846c-1.95,2.222-2.699,5.253-4.396,7.319
		c-1.3,1.589-4.444,3.649-5.866,5.867c-2.502,13.029,4.28,20.516,16.614,16.128c3.455,1.953,7.714,5.745,14.66,4.881
		c5.247-0.65,9.094-5.437,14.162-6.349c3.247-0.589,6.437,0.637,9.778,0.486c1.582-0.062,4.567-0.572,7.328-0.975
		c2.989-0.453,6.207-1.367,9.283-1.962c4.366-0.827,9.061-1.008,12.712-2.446c2.498-0.967,5.044-2.648,7.815-3.9
		c1.366-0.624,3.079-0.755,4.402-1.47c1.082-0.592,1.75-1.899,2.927-2.44c3.571-1.687,7.726-2.802,11.237-4.892
		c5.193-3.066,7.493-6.817,16.611-4.88c3.434,0.726,6.76,4.533,11.733,5.379c2.418,0.411,5.417-0.015,7.812,0.482
		c4.816,1.024,8.49,4.056,10.745,4.404c8.66,1.326,16.673-3.342,25.411-0.493c6.915,2.249,12.769,9.87,13.689,15.147
		c0.896,5.089-1.501,13.521-3.915,16.61c-2.313,2.992-5.047,2.13-8.791,6.845c-3.378,0.426-6.007,2.518-8.799,3.909
		c-3.396,1.693-7.305,2.585-9.769,4.886c-1.544,1.428-2.867,2.842-4.392,4.394c-3.931,4.014-8.646,7.631-13.694,11.234
		c-6.6,2.432-11.71,4.804-20.032,6.844c-3.973,0.994-7.087,2.23-12.212,2.446c-10.369,0.437-22.542,0.156-26.87,8.303
		c-1.573,2.955-1.281,8.631-2.445,13.201c-0.335,1.282-1.377,2.408-1.467,3.422c-0.908,9.345,1.822,19.601-2.445,26.872
		c-2.121,3.604-5.71,5.715-7.826,8.806c-3.24,4.716-5.471,10.971-6.345,19.052c-0.316,2.899,0.427,6.112,0,9.28
		c-0.742,5.472-5.645,14.227-2.936,18.083c1.472,2.078,4.307,1.373,7.328,2.441c5.197,1.828,12.311,6.938,15.157,10.256
		c0.883,1.033,1.762,3.126,2.926,4.893c1.001,1.486,2.62,2.932,2.933,4.395c1.024,4.666-0.759,8.32-0.49,12.705
		c0.311,5.026,2.249,12.59,7.325,13.188c1.798,0.221,4.134-0.525,5.874-0.477c4.101,0.088,9.458,1.126,13.669,2.926
		c4.872,2.061,11.947,6.196,12.218,12.221c0.203,4.261-2.752,6.672-6.353,8.785c-5.775-0.758-10.219,1.613-16.123-0.488
		c-3.485-1.236-6.697-4.507-10.749-6.347c-1.35-0.624-3.243-0.81-4.885-1.46c-6.598-2.67-13.985-5.746-21.992-8.314
		c-6.221-2.002-11.312-4.6-14.655,0.99c-3.094-0.334-5.202,0.324-6.835,1.459c1.824,5.497,5.924,12.285,2.923,19.534
		c-5.415-2.185-2.413-11.669-6.347-16.118c-2.625-2.972-8.072-4.226-10.265,0.484c-0.59,7.845,0.499,15.396,4.405,20.033
		c1.141,4.33,5.678,9.397,1.947,14.178c-9.351,3.247-14.899-4.693-21.983-6.844c-2.416,0.552-4.661,1.004-6.841,1.463
		c-5.4,1.146-9.025,0.854-14.174,0.49c-9.087-0.642-17.659,0.926-23.939,6.355c-7.479,6.455-8.135,28.383-4.888,40.549
		c1.008,3.811,2.688,7.409,3.422,11.248c0.645,3.364-0.26,6.043,0,8.791c0.191,2.04,1.604,4.164,1.953,6.35
		c0.358,2.221,0.009,4.942,0,7.328c-0.006,1.95,1.568,4.916-1.472,5.865c-4.036-2.539-1.854-10.981-2.438-17.105
		c-0.365-3.793-2.243-8.047-3.909-10.746c0.424-7.639-2.063-16.037-4.895-21.992c-3.428-0.099-6.235,1.787-8.792,2.937
		c-6.415,2.885-11.548,4.972-12.211,14.656c-0.257,3.802,0.609,8.767,0.487,13.684c-0.12,4.651-0.794,9.472-0.487,12.702
		c0.403,4.223,2.574,6.773,1.947,11.24c-0.385,2.814-4.327,11.027-7.323,11.728c-2.073,0.49-4.011-0.546-5.862-0.485
		c-4.411-4.146-3.96-13.201-1.953-20.526c1.404-5.151,3.712-9.911,2.93-18.077c-0.155-1.588-0.759-3.195-0.977-4.885
		c-0.194-1.518,0.164-3.244,0-4.893c-0.221-2.162-1.434-4.42-1.463-6.355c-0.042-2.652,1.58-9.264,1.463-13.182
		c-0.14-4.789-1.861-12.154-1.953-17.111c-0.128-6.149,0.678-9.907-3.419-10.259c-4.441-0.38-3.987,3.521-6.353,5.868
		c-0.134,4.435,0.717,9.841-2.442,11.229c-1.98-3.465,1.562-10.027-3.42-11.229c-4.369-1.051-5.635,3.485-8.314,6.355
		c0.902,4.321-2.518,5.218-0.974,8.791c-2.446,2.902-2.685,6.857-3.417,10.268c-2.918,13.439-5.495,23.785-9.774,36.148
		c-2.15,6.211-3.882,12.497-5.859,19.062c-1.511,4.948-2.317,11.045-3.912,17.104c-0.104,0.393-0.654,0.912-0.982,2.433
		c-1.058,4.896-2.396,11.155-3.897,17.102c-1.353,5.288-3.136,9.888-3.921,16.621c-0.995,0.147-0.964,1.317-1.953,1.465
		C125.497,545.734,125.166,545.734,124.849,545.734z"/>
</g>
<path fill-rule="evenodd" clip-rule="evenodd" fill="#F7941E" d="M29.788,265.797c4.848-1.151,10.951-2.557,14.894,1.155
	c1.177,1.095,3.984,4.875,4.596,6.879c3.017,9.835-2.914,16.554-10.891,17.786c-6.463,0.985-15.067-6.501-14.924-13.778
	C23.546,273.401,26.084,269.366,29.788,265.797z"/>
<g>
	<g>
		<path fill="#010201" d="M158.658,228.573l-0.009,0.001c-0.051-0.121-0.164-0.355-0.337-0.674l0,0
			c-0.35-0.628-0.956-1.572-1.873-2.59l0,0c-1.86-2.031-4.796-4.366-10.112-5.474l0,0c-1.553-0.313-3.001-0.465-4.357-0.498l0,0
			c-3.805-0.096-6.899,0.742-9.112,1.644l0,0c-2.042,0.832-3.3,1.719-3.497,1.862l0,0c-2.84,2.25-6.973,1.787-9.249-1.045l0,0
			c-2.279-2.848-1.822-7.004,1.021-9.284l0,0c0.349-0.275,2.431-1.899,6.039-3.472l0,0c3.604-1.563,8.783-3.066,15.126-2.909l0,0
			c2.111,0.052,4.34,0.29,6.666,0.763l0,0c8.257,1.659,13.935,5.806,17.288,9.574l0,0c3.387,3.772,4.629,7.085,4.835,7.646l0,0
			c1.228,3.436-0.558,7.212-3.996,8.438l0,0c-0.789,0.284-1.592,0.408-2.383,0.387l0,0
			C162.06,232.877,159.605,231.213,158.658,228.573L158.658,228.573z"/>
	</g>
	<g>
		<path fill="#010201" d="M243.392,230.681l0.006,0.004c0.056-0.121,0.183-0.35,0.371-0.658l0,0c0.381-0.612,1.03-1.526,1.997-2.498
			l0,0c1.962-1.934,5.009-4.123,10.375-4.963l0,0c1.562-0.235,3.019-0.313,4.375-0.279l0,0c3.805,0.094,6.852,1.082,9.02,2.093l0,0
			c1.996,0.933,3.207,1.881,3.401,2.036l0,0c2.727,2.387,6.875,2.129,9.289-0.587l0,0c2.418-2.726,2.168-6.901-0.562-9.323l0,0
			c-0.332-0.292-2.33-2.016-5.856-3.765l0,0c-3.521-1.74-8.622-3.503-14.961-3.658l0,0c-2.109-0.054-4.349,0.072-6.692,0.43l0,0
			c-8.332,1.245-14.213,5.107-17.746,8.703l0,0c-3.569,3.602-4.975,6.849-5.208,7.397l0,0c-1.4,3.366,0.2,7.232,3.569,8.628l0,0
			c0.774,0.321,1.574,0.479,2.365,0.503l0,0C239.776,234.809,242.313,233.268,243.392,230.681L243.392,230.681z"/>
	</g>
	<path fill="#271D12" d="M111.003,246.8c0,0,86.222,25.592,175.918,4.37c0,0-23.043,76.712-90.043,75.046
		C128.886,324.526,111.003,246.8,111.003,246.8z"/>
	<path fill="#FFFFFF" d="M133.142,258.002c0,0,32.197,7.646,63.644,8.429c31.46,0.783,63.349-3.833,63.349-3.833
		s-18.826,32.333-64.328,31.2C150.305,292.667,133.142,258.002,133.142,258.002z"/>
</g>
<g id="g841_1_" transform="translate(-74.48908,36.10290)">
	<path id="path832_1_" fill="#FFFFFF" stroke="#000000" stroke-width="1.5067" stroke-linejoin="round" d="M532.273,218.763
		c2.083,17.398-10.404,33.21-27.866,35.302c-17.465,2.088-33.325-10.335-35.407-27.731c-2.081-17.4,10.402-33.216,27.867-35.306
		C514.329,188.939,530.192,201.364,532.273,218.763z"/>
	<path id="path834_1_" fill="#8DC63F" d="M517.342,220.323c1.097,9.19-5.468,17.542-14.659,18.642
		c-9.193,1.098-17.543-5.468-18.643-14.658c-1.1-9.191,5.465-17.541,14.658-18.641C507.889,204.566,516.239,211.131,517.342,220.323
		z"/>
	<path id="path835_1_" d="M510.687,221.273c0.661,5.513-3.274,10.525-8.794,11.185c-5.514,0.661-10.525-3.281-11.185-8.794
		c-0.66-5.515,3.282-10.526,8.794-11.186C505.019,211.819,510.031,215.757,510.687,221.273z"/>
	
		<linearGradient id="path836_2_" gradientUnits="userSpaceOnUse" x1="134.2635" y1="528.3864" x2="136.4225" y2="526.1645" gradientTransform="matrix(9.9292 -1.1877 -1.1877 -9.9292 -218.3433 5616.3477)">
		<stop  offset="0" style="stop-color:#FFFFFF;stop-opacity:0.5"/>
		<stop  offset="1" style="stop-color:#FFFFFF;stop-opacity:0"/>
	</linearGradient>
	<path id="path836_1_" fill="url(#path836_2_)" d="M511.598,217.787c0.879,7.35-4.374,14.034-11.725,14.913
		c-7.355,0.88-14.036-4.376-14.914-11.726c-0.882-7.355,4.373-14.036,11.725-14.914
		C504.038,205.179,510.721,210.432,511.598,217.787z"/>
</g>
<g id="g846_1_" transform="translate(-34.44999,34.91603)">
	<path id="path847_1_" fill="#FFFFFF" stroke="#000000" stroke-width="1.5067" stroke-linejoin="round" d="M598.521,204.029
		c2.081,17.4-10.401,33.215-27.866,35.305c-17.462,2.088-33.325-10.337-35.406-27.737c-2.082-17.4,10.404-33.216,27.869-35.306
		C580.58,174.202,596.44,186.629,598.521,204.029z"/>
	<path id="path848_1_" fill="#8DC63F" d="M583.587,205.586c1.103,9.193-5.468,17.542-14.658,18.644
		c-9.191,1.1-17.541-5.466-18.641-14.66c-1.1-9.188,5.465-17.541,14.661-18.641C574.135,189.83,582.49,196.397,583.587,205.586z"/>
	<path id="path849_1_" d="M576.938,206.54c0.661,5.511-3.279,10.523-8.794,11.183c-5.514,0.661-10.525-3.281-11.185-8.794
		c-0.661-5.515,3.282-10.525,8.794-11.186C571.267,197.085,576.279,201.023,576.938,206.54z"/>
	
		<linearGradient id="path850_2_" gradientUnits="userSpaceOnUse" x1="100.9646" y1="529.7725" x2="103.1238" y2="527.5504" gradientTransform="matrix(9.9292 -1.1877 -1.1877 -9.9292 180.1928 5575.8276)">
		<stop  offset="0" style="stop-color:#FFFFFF;stop-opacity:0.5"/>
		<stop  offset="1" style="stop-color:#FFFFFF;stop-opacity:0"/>
	</linearGradient>
	<path id="path850_1_" fill="url(#path850_2_)" d="M577.849,203.053c0.879,7.351-4.374,14.033-11.725,14.913
		c-7.359,0.88-14.035-4.375-14.917-11.726c-0.879-7.356,4.373-14.035,11.728-14.914C570.287,190.445,576.97,195.697,577.849,203.053
		z"/>
</g>
<path d="M589.9,215.851c-2.517-9.365-17.198-9.364-22.054-9.364c-24.889,0-72.095,11.48-79.93,21.406
	c-1.301,1.65-1.675,3.229-1.698,4.454c-0.508,1.999-0.848,4.271-1.054,6.684c-4.451-0.896-9.164-0.39-13.219,1.4
	c-1.233-2.916-2.628-5.547-4.104-7.709c-2-5.718-11.339-6.551-21.267-6.551c-21.653,0-67.828,6.509-78.868,18.95
	c-2.682,3.021-3.085,5.934-2.91,7.936c0.399,24.484,7.72,40.717,20.622,45.714c0.552,0.213,1.135,0.322,1.724,0.322
	c0.188,0,0.378-0.011,0.566-0.032c0.729-0.089,2.262-0.142,4.424-0.231c15.178-0.628,55.496-2.297,78.994-18.03
	c0.464-0.309,0.867-0.696,1.195-1.145c5.436-7.426,5.349-19.375,2.67-30.064c2.815-1.537,6.769-2.003,10.178-0.665
	c0.92,11.508,4.969,23.735,13.068,29.101c0.465,0.308,0.979,0.533,1.521,0.662c5.236,1.262,11.214,1.902,17.759,1.902
	c0.003,0,0.003,0,0.006,0c24.363,0,51.155-8.646,62.596-12.338c2.055-0.663,3.506-1.143,4.217-1.31
	c0.76-0.183,1.46-0.549,2.046-1.064C596.761,256.718,598.009,238.957,589.9,215.851z M465.06,273.368
	c-21.438,13.778-60.41,15.391-73.32,15.925c-1.56,0.066-2.84,0.123-3.79,0.18c-8.266-3.999-13.333-17.604-13.613-36.765
	c-0.004-0.165-0.016-0.271-0.035-0.436c1.285-6.389,40.976-16.56,72.274-16.56c8.262,0,11.564,0.873,12.647,1.276
	c0.107,0.201,0.229,0.396,0.365,0.581C465.538,245.722,470.231,264.982,465.06,273.368z M580.793,258.03
	c-0.908,0.274-2.124,0.661-3.604,1.139c-11.011,3.556-36.802,11.879-59.664,11.879c0,0-0.003,0-0.006,0
	c-5.416,0-10.338-0.483-14.639-1.432c-7.76-6.08-10.023-25.773-7.261-35.48c0.066-0.24,0.116-0.481,0.147-0.726
	c5.529-5.265,45.88-17.384,72.08-17.384c9.308,0,12.485,1.756,12.845,2.315c0.038,0.162,0.087,0.322,0.14,0.481
	C587.207,236.895,587.166,251.416,580.793,258.03z"/>
<g>
	<path fill="#010201" d="M516.546,311.415l-0.012-0.006c-0.063,0.128-0.209,0.377-0.443,0.717l0,0
		c-0.462,0.676-1.289,1.709-2.598,2.902l0,0c-2.667,2.396-6.991,5.389-15.271,7.972l0,0c-2.417,0.746-4.698,1.317-6.843,1.75l0,0
		c-6.025,1.222-11.046,1.385-14.693,1.23l0,0c-3.36-0.147-5.479-0.577-5.818-0.647l0,0c-4.83-1.189-11.321,0.462-14.525,3.706l0,0
		c-3.216,3.254-1.896,6.884,2.945,8.101l0,0c0.589,0.145,4.124,0.995,10.076,1.34l0,0c5.938,0.343,14.377,0.163,24.413-1.871l0,0
		c3.343-0.674,6.849-1.556,10.468-2.676l0,0c12.871-3.965,21.296-9.415,26.078-13.826l0,0c4.838-4.426,6.333-7.795,6.582-8.363l0,0
		c1.466-3.475-1.912-6.365-7.534-6.452l0,0c-1.294-0.022-2.597,0.11-3.845,0.36l0,0C521.34,306.499,517.675,308.742,516.546,311.415
		L516.546,311.415z"/>
</g>
</svg>
