<?xml version="1.0" encoding="utf-8"?>
<!-- Generator: Adobe Illustrator 18.1.1, SVG Export Plug-In . SVG Version: 6.00 Build 0)  -->
<!DOCTYPE svg PUBLIC "-//W3C//DTD SVG 1.1//EN" "http://www.w3.org/Graphics/SVG/1.1/DTD/svg11.dtd">
<svg version="1.1" id="Layer_1" xmlns="http://www.w3.org/2000/svg" xmlns:xlink="http://www.w3.org/1999/xlink" x="0px" y="0px"
	 viewBox="-155 279.4 283.5 283.5" enable-background="new -155 279.4 283.5 283.5" xml:space="preserve">
<g>
	<path fill="#F89521" d="M3.1,487c0.8,0.4,0.5,1.7,0.5,2.3c0.1,9.1-1.3,20.1-1.7,27.5c-0.3,0-0.6-0.1-0.8-0.1
		C1.7,507.8,2.6,496.6,3.1,487z"/>
	<path fill="#F29400" d="M22.1,563.2c-0.5-0.2-0.4-0.8-1-1c0.1-3.8-0.5-6.6-0.8-9.7c-0.3-3.5-0.6-7.1-0.7-9.9
		c-0.1-0.9-0.3-1.2-0.3-1.5c-0.4-3.5-0.3-7-0.7-9.9c-0.5-3.9-1-7.5-1.7-11.2c-1.3-7.3-1.9-13.3-2.4-21.1c-0.1-2,0.1-4.2-1-6.1
		c1.2-1.9-0.7-2.7,0.2-5c-1.3-1.8-1.6-4.5-4.1-4.3c-2.9,0.3-1.5,4.2-2.9,6c-1.7-1-0.7-4-0.4-6.5c-1.1-1.5-0.5-3.7-3.1-3.8
		c-2.3-0.2-2.2,2-2.8,5.5c-0.5,2.8-2.1,6.8-2.6,9.4c-0.4,2.2-0.1,6-0.3,7.5c-0.2,1.1-1.1,2.2-1.4,3.4c-0.2,0.9-0.2,1.9-0.4,2.7
		c-0.3,0.9-0.7,1.8-1,2.7c-1.1,4.5-0.2,7.4,0.1,10.4c0.5,4.3,0,9.4-2.8,11.4c-1-0.2-2.2,0.2-3.3-0.2c-1.6-0.6-3.1-5.6-3.1-7.2
		c0-2.6,1.5-3.8,2.1-6.1c0.4-1.8,0.5-4.6,0.8-7.2c0.4-2.8,1.3-5.5,1.4-7.6c0.5-5.5-2.3-7.1-5.6-9.3c-1.3-0.9-2.8-2.2-4.7-2.4
		c-2.1,3.1-4.2,7.6-4.6,11.9c-1.2,1.4-2.6,3.6-3.1,5.7c-0.9,3.4-0.3,8.3-2.8,9.4c-1.6-0.8-0.5-2.3-0.3-3.4c0.2-1.3,0.2-2.9,0.6-4.1
		c0.4-1.2,1.4-2.3,1.6-3.4c0.4-1.5,0.1-3.1,0.8-4.9c0.7-2.1,2-4,2.9-6c2.9-6.6,4.4-18.9,0.7-23.2c-3.1-3.6-7.7-5.2-12.9-5.6
		c-2.9-0.2-5-0.4-7.9-1.5c-1.2-0.4-2.4-0.9-3.7-1.4c-4.2,0.6-8,4.6-12.9,2c-1.7-3,1.3-5.5,2.3-7.8c2.6-2.3,3.8-6.4,4.2-10.9
		c-0.8-2.8-4-2.6-5.7-1.1c-2.6,2.2-1.7,7.7-4.9,8.5c-1.1-4.3,1.8-7.8,3.3-10.7c-0.8-0.8-1.9-1.3-3.7-1.4c-1.4-3.4-4.5-2.4-8.1-1.8
		c-4.7,0.8-9.1,1.9-13.1,2.8c-1,0.2-2.1,0.2-2.9,0.4c-2.4,0.7-4.5,2.3-6.6,2.6c-3.5,0.7-5.8-1-9.1-1.1c-1.8-1.5-3.3-3.1-2.8-5.5
		c0.7-3.4,5-5.1,7.9-5.8c2.5-0.7,5.6-0.8,7.9-0.5c1,0.1,2.2,0.7,3.3,0.8c2.9,0.1,4.6-4,5.2-6.8c0.5-2.4-0.2-4.6,0.8-7.2
		c0.3-0.8,1.3-1.5,2-2.2c0.8-0.9,1.5-2,2.1-2.5c1.9-1.6,6.3-3.9,9.4-4.5c1.8-0.3,3.3,0.3,4.3-0.7c1.8-1.9-0.2-7.3-0.1-10.4
		c0-1.8,0.7-3.6,0.8-5.2c0.2-4.6-0.5-8.3-1.9-11.2c-0.9-1.9-2.8-3.4-3.6-5.6c-1.8-4.4,0.6-10,0.9-15.3c0-0.6-0.5-1.3-0.5-2
		c-0.3-2.7,0.4-5.8-0.2-7.6c-1.7-4.9-8.6-5.8-14.4-7c-2.9-0.6-4.5-1.5-6.6-2.4c-4.5-1.9-7.2-3.6-10.7-5.6c-2.5-2.5-4.9-4.9-6.7-7.5
		c-0.7-1-1.3-1.9-2.1-2.8c-1.2-1.5-3.3-2.3-5.1-3.6c-1.4-1-2.7-2.4-4.6-2.9c-1.7-3-3.3-2.7-4.4-4.6c-1.1-1.9-1.7-6.9-0.8-9.7
		c1-2.9,4.9-6.7,9-7.3c5.1-0.9,9.2,2.4,14.2,2.4c1.3,0,3.6-1.4,6.4-1.6c1.4-0.1,3,0.4,4.4,0.4c2.9-0.1,5.1-1.9,7-2
		c5.3-0.3,6.3,2,8.9,4.2c1.8,1.5,4,2.5,5.9,3.7c0.6,0.4,0.9,1.2,1.4,1.6c0.7,0.5,1.6,0.7,2.3,1.2c1.4,0.9,2.7,2.1,4.1,2.9
		c1.9,1.1,4.5,1.6,6.9,2.5c1.7,0.6,3.4,1.4,5,1.9c1.5,0.5,3.1,1,4,1.2c1.9,0.4,3.8,0,5.5,0.6c2.8,0.9,4.5,4,7.4,4.8
		c3.8,1.1,6.5-0.7,8.6-1.5c6.6,3.5,11-0.1,10.7-7.6c-0.6-1.4-2.2-2.8-2.8-3.8c-0.8-1.3-0.9-3.1-1.8-4.5c-1-1.6-2.8-2.8-3.8-4.5
		c-0.6-1-0.9-2.6-1.4-3.6c-1-1.8-2.4-4.7-2.7-6.3c-0.9-4.5,1.3-11.4,6.4-10.5c3.6,0.6,4.4,6.2,7.7,8.7c2.2,1.7,5.7,2.6,8.3,0.7
		c1.1-3.6-0.1-12,5.1-11.6c5.9,0.5,2.8,9.9,6.8,12.5c3.1,2.1,6.3,0.3,10,0.7c2.5,0.3,4.2,1.4,5.8,2.3c1.8,1,3.7,2.5,5.5,2.5
		c2.3,0,3-2,4.4-3.3c1.8-1.6,3.9-2.8,5.7-4.2c0.4-1.4,1.8-2.5,2.8-3.5c0.9-0.9,2.1-2.3,3.2-2.9c2-1.1,4.1-0.5,6.6-0.7
		c1.8-0.1,3.4-1.2,5.1-0.3c-0.4,1.9-2.4,2.5-3.6,3.7c-1.2,1.1-2.7,2.6-3.7,3.9c-1,1.3-1.2,3.1-2.6,4.4c0.4,1.1-0.5,1.8,0.1,2.8
		c-2.2,3.1-4.1,8.5-2.1,12.3c0.7,1.4,2.2,2.1,3.1,3.3c5.3,0.7,5.6,5.4,6.7,9.2c1.4,4.4,4,8.5,5.1,12.6c3.2,3,7.6,6.6,10,9.9
		c1.2,1.7,2.8,4,4.3,5.1c2,1.5,5.9,1.1,7.7,2.9c0.8,0.7,1.2,2.1,1.2,3c0.1,1.2-0.8,2.4-0.6,3.8c0.4,2.5,4.5,3.9,5.4,7
		c0.3,0.9-0.1,2.2,0.1,3.1c0.5,2.4,1.9,3.8,1.2,6.6c1.4,1.5,3.1,1.9,4.3,3.2c2.9,3.1,1.9,8.2,3.1,12.5c-0.7,0.5-1.1,1.4-1.5,2.3
		c0.8,1.2,1.4,2.8,3,4.4c1.5,1.5,3.8,2.2,3.5,4.5c-0.3,2.1-3.4,3.5-5.1,3.7c-2.9,0.3-5.9-0.8-8.1-0.4c-1.9,0.4-5,1.6-6.4,3.2
		c-1.2,1.5-1.1,3.1-2,5.6c-0.3,0.9-1.3,2.2-1.9,3.4c-0.6,1.2-1.3,2.4-2,3.6c-1.3,2.3-3.3,4.3-4.4,6.6c-0.3,0.6-0.3,1.6-0.6,2.2
		c-1.2,2.2-3.3,3.7-4.2,5.3c-1.4,2.4-1,5.8-2,7.6c-0.9,1.4-3.7,1.8-5.1,3.7c-1.1,1.5-1.2,2.6-1.8,4.5c1,2.7,3.3,4.6,4.4,7.7
		c0.3,1,0.3,2.4,0.6,3.5c0.9,3.5,2.6,5.4,5.4,7.3c1.1,2.9,5.4,5.6,2.3,9c-3.6,3.9-10.4-2.7-11.1-6.2c-1.2-1.4-3.2-2.5-4.7-4.4
		c-1.1-1.3-1.4-3.5-2.7-4.1c-2.5-1.2-4.8,0.2-6,0.8c-2.2,1.1-4.9,1.8-5.9,3.6c0.9,2.8,5.9,4.5,3.9,7.9c-2.8,0.2-3.2-2.5-3.9-4
		c-1.4-3-3.4-5.2-7.7-4.5c-3,0.4-7,2.4-8.5,4.3c-2.4,2.9-2.1,8.2-1.2,11.3c1,3.3,3.1,5.9,2,9c-0.4,1.2-2.3,3-4.1,2.7
		c-4-0.5-2.5-5.7-6.1-6.3c0.5,1.8,0,4.4,0.5,6.2c1.5,3.2,2.5,6.6,1.9,11.2c3.4,10.3,2.7,23.1,4.4,33.8c0.4,2.3,0.5,4.6,0.6,7.1
		c0.3,4.6,1.8,9.3,0.7,13.9C22.5,563.2,22.3,563.2,22.1,563.2z"/>
</g>
<path fill="#F89521" d="M102.4,421.5c-0.5,4.1-6,7.6-9.6,6.5c-4.4-1.4-7.1-5.6-4.6-10.9c0.5-1.1,2.4-3,3.2-3.5
	c2.5-1.7,5.8-0.4,8.5,0.6C101.7,416.5,102.7,419,102.4,421.5z"/>
<g>
	<g>
		<path fill="#040404" d="M30.7,382.3c-0.8,1.4-2.3,2.1-3.8,1.9l0,0c-0.4-0.1-0.9-0.2-1.3-0.4l0,0c-1.8-1-2.5-3.3-1.5-5.1l0,0
			c0.2-0.3,1.1-2.1,3.4-3.9l0,0c2.2-1.8,5.7-3.7,10.5-3.9l0,0c1.3-0.1,2.6,0,3.8,0.1l0,0c3.6,0.5,6.4,1.7,8.2,2.9l0,0
			c1.9,1.2,2.9,2.3,3.1,2.5l0,0c1.4,1.5,1.3,3.9-0.2,5.3l0,0c-1.5,1.4-3.9,1.3-5.3-0.2l0,0c-0.1-0.1-0.7-0.7-1.8-1.3l0,0
			c-1.2-0.7-2.8-1.4-5-1.7l0,0c-0.8-0.1-1.6-0.1-2.5-0.1l0,0c-3.1,0.2-4.9,1.2-6.1,2.2l0,0c-0.6,0.5-1,1-1.3,1.3l0,0
			C30.8,382.1,30.8,382.2,30.7,382.3L30.7,382.3L30.7,382.3z"/>
	</g>
	<g>
		<path fill="#040404" d="M-17,376.3c0.4,1.5,1.7,2.6,3.2,2.8l0,0c0.4,0.1,0.9,0,1.4-0.1l0,0c2-0.5,3.2-2.5,2.7-4.5l0,0
			c-0.1-0.3-0.6-2.3-2.3-4.6l0,0c-1.7-2.3-4.6-5-9.2-6.4l0,0c-1.3-0.4-2.5-0.7-3.7-0.8l0,0c-3.6-0.5-6.6,0.1-8.7,0.8l0,0
			c-2.1,0.7-3.4,1.5-3.6,1.6l0,0c-1.7,1.1-2.2,3.5-1.1,5.2l0,0c1.1,1.7,3.4,2.2,5.2,1.1l0,0c0.1-0.1,0.9-0.5,2.1-0.9l0,0
			c1.3-0.4,3.1-0.7,5.2-0.4l0,0c0.8,0.1,1.6,0.3,2.4,0.5l0,0c2.9,0.9,4.5,2.4,5.4,3.7l0,0c0.5,0.6,0.7,1.2,0.9,1.6l0,0
			C-17.1,376.1-17.1,376.2-17,376.3L-17,376.3L-17,376.3z"/>
	</g>
	<path fill="#281E14" d="M0.9,433.9c-37.8-4.8-44.2-49.8-44.2-49.8c48.5,19.6,99.1,12.5,99.1,12.5S39.3,438.7,0.9,433.9z"/>
	<path fill="#FFFFFF" d="M4.3,415.7c-25.6-3.2-33.5-23-33.5-23s17.5,5.3,35.2,7.6c17.7,2.2,36.4,0.7,36.4,0.7S29.9,419,4.3,415.7z"
		/>
</g>
</svg>
