{
  "apiPackage": "com.kiga.shop.backend.api.controller",
  "dateLibrary": "java8",
  "delegatePattern": true,
  "hideGenerationTimestamp": true,
  "useBeanValidation": true,
  "useTags": true,
  "interfaceOnly": true,
  "library": "spring-mvc",
  "modelPackage": "com.kiga.shop.backend.api.model"
}
